[{"name": "prost", "argparse": 1, "docopt": 2, "argv": 1, "link": "https://github.com/uoregon-postlethwait/prost", "repo": "uoregon-postlethwait/prost", "ndownloads": 494, "description": "An application to quantify and annotate miRNA expression."}, 
{"name": "illumiprocessor", "argparse": 2, "link": "https://github.com/faircloth-lab/illumiprocessor", "repo": "faircloth-lab/illumiprocessor", "ndownloads": 73, "description": "Automated Illumina read trimming using trimmomatic"}, 
{"name": "pyqtconfig", "argv": 2, "link": "https://github.com/mfitzp/pyqtconfig", "repo": "mfitzp/pyqtconfig", "ndownloads": 693, "description": "An API for keeping PyQt widgets in sync with a config dictionary or QSettings object."}, 
{"name": "spykeviewer", "argv": 3, "link": "https://github.com/rproepp/spykeviewer", "repo": "rproepp/spykeviewer", "click": 1, "ndownloads": 293, "description": "A multi-platform GUI application for navigating, analyzing and visualizing electrophysiological datasets"}, 
{"link": "https://github.com/tariqdaouda/rabaDB", "repo": "tariqdaouda/rabaDB", "name": "rabaDB", "ndownloads": 36, "description": "Store, Search, Modify your objects easily. You're welcome."}, 
{"name": "SMBL", "argv": 1, "link": "http://github.com/karel-brinda/smbl", "repo": "karel-brinda/smbl", "ndownloads": 851, "description": "SnakeMake Bioinformatics Library."}, 
{"link": "https://github.com/ecolell/MIToS", "repo": "ecolell/MIToS", "name": "mitos", "ndownloads": 191, "description": "A python library that join a set of tools to make a Mutual Information analysis for protein sequences."}, 
{"name": "eke.labcas", "optparse": 1, "link": "https://github.com/EDRN/eke.labcas", "repo": "EDRN/eke.labcas", "ndownloads": 78, "description": "Laboratory Catalog and Archive Service for the EDRN Knowledge Environment"}, 
{"link": "https://github.com/kdmurray91/kwip", "repo": "kdmurray91/kwip", "name": "kwipy", "ndownloads": 175, "description": "kwip in python"}, 
{"link": "https://github.com/gersolar/linketurbidity", "repo": "gersolar/linketurbidity", "name": "linketurbidity", "ndownloads": 252, "description": "A python library that simplify the access to the linketurbidity index."}, 
{"link": "https://github.com/hammerlab/gtfparse", "repo": "hammerlab/gtfparse", "name": "gtfparse", "ndownloads": 425, "description": "GTF Parsing"}, 
{"name": "timestream", "docopt": 12, "argv": 12, "link": "https://github.com/borevitzlab/timestreamlib", "repo": "borevitzlab/timestreamlib", "click": 2, "ndownloads": 152, "description": "timestream: Utilities and a python library for manipulating timelapses in the   TimeStream format"}, 
{"name": "seqenv", "argparse": 1, "argv": 1, "link": "https://github.com/xapple/seqenv", "repo": "xapple/seqenv", "ndownloads": 149, "description": "Assign environment ontology (EnvO) terms to short DNA sequences"}, 
{"name": "srapy", "docopt": 3, "argv": 4, "link": "https://github.com/kdmurray91/srapy", "repo": "kdmurray91/srapy", "ndownloads": 373, "description": "SRApy: Scripts to download SRA files"}, 
{"name": "loom-engine", "argparse": 15, "argv": 1, "link": "https://github.com/StanfordBioinformatics/loom", "repo": "StanfordBioinformatics/loom", "ndownloads": 53, "description": "loom workflow engine"}, 
{"name": "dots_for_microarrays", "argparse": 1, "link": "https://github.com/sandyjmacdonald/dots_for_microarrays", "repo": "sandyjmacdonald/dots_for_microarrays", "ndownloads": 182, "description": "Simple analysis of Agilent one-color arrays."}, 
{"link": "https://github.com/BeatsonLab-MicrobialGenomics/DiscoPlot", "repo": "BeatsonLab-MicrobialGenomics/DiscoPlot", "name": "DiscoPlot", "ndownloads": 135, "description": "DiscoPlot: identify genomic rearrangements, misassemblies and sequencing artefacts in NGS data"}, 
{"name": "gpml2svg", "optparse": 1, "link": "https://github.com/mfitzp/gpml2svg", "repo": "mfitzp/gpml2svg", "ndownloads": 398, "description": "Render GPML pathway markup to SVG from the commandline/Python."}, 
{"name": "varlens", "argparse": 5, "argv": 3, "link": "https://github.com/hammerlab/varlens", "repo": "hammerlab/varlens", "ndownloads": 318, "description": "commandline manipulation of genomic variants and NGS reads"}, 
{"name": "medic", "argparse": 1, "argv": 1, "link": "https://github.com/fnl/medic", "repo": "fnl/medic", "ndownloads": 690, "description": "A command line tool to manage a PubMed DB mirror."}, 
{"name": "biocma", "argparse": 2, "argv": 3, "link": "http://github.com/etal/biocma", "repo": "etal/biocma", "ndownloads": 262, "description": "I/O and utilities for the Consensus Multiple Alignment (CMA) file format."}, 
{"link": "https://github.com/biosustain/genomediff-python.git", "repo": "biosustain/genomediff-python.git", "name": "genomediff", "ndownloads": 150, "description": "GenomeDiff (*.gd) file reader"}, 
{"link": "https://github.com/genomematt/xenomapper.git", "repo": "genomematt/xenomapper.git", "name": "XenoMapper", "ndownloads": 129, "description": "xenomapper - mapping mixed reads from two species"}, 
{"name": "circlator", "argparse": 12, "argv": 3, "link": "https://github.com/sanger-pathogens/circlator", "repo": "sanger-pathogens/circlator", "ndownloads": 959, "description": "circlator: a tool to circularise genome assemblies"}, 
{"name": "backtranslate", "argparse": 2, "link": "https://github.com/mutalyzer/backtranslate", "repo": "mutalyzer/backtranslate", "ndownloads": 173, "description": "BackTranslate: Functions for reverse translation."}, 
{"name": "pyprophet", "argv": 3, "link": "http://github.com/uweschmitt/pyprophet", "repo": "uweschmitt/pyprophet", "ndownloads": 1853, "description": "Python reimplementation of mProphet peak scoring"}, 
{"optparse": 1, "name": "ga4gh", "argparse": 12, "link": "https://github.com/ga4gh/server", "repo": "ga4gh/server", "ndownloads": 718, "description": "A reference implementation of the ga4gh API"}, 
{"name": "seq-qc", "argparse": 3, "argv": 3, "link": "https://github.com/Brazelton-Lab/seq_qc/", "repo": "Brazelton-Lab/seq_qc", "ndownloads": 183, "description": "utilities for performing various preprocessing steps on sequencing reads"}, 
{"link": "https://github.com/gersolar/netcdf", "repo": "gersolar/netcdf", "name": "netcdf", "ndownloads": 791, "description": "A python library that allow to use one or multiple NetCDF files in a transparent way through polimorphic methods."}, 
{"link": "https://github.com/arvkevi/gwas_wrapper", "repo": "arvkevi/gwas_wrapper", "name": "gwas_wrapper", "ndownloads": 246, "description": "Python wrapper for interacting with the NHGRI-EBI GWAS Catalog"}, 
{"link": "http://github.com/bow/abifpy/", "repo": "bow/abifpy", "name": "abifpy", "ndownloads": 77, "description": "abifpy is a module for reading ABI Sanger sequencing trace files."}, 
{"link": "https://github.com/kblin/bioinf-helperlibs/wiki", "repo": "kblin/bioinf-helperlibs", "name": "helperlibs", "ndownloads": 148, "description": "A collection of bioinformatics-related helper functions"}, 
{"name": "RNFtools", "argparse": 1, "argv": 2, "link": "http://github.com/karel-brinda/rnftools", "repo": "karel-brinda/rnftools", "ndownloads": 502, "description": "A package for Read Naming Format (RNF)."}, 
{"link": "https://github.com/fadern/libplinkio", "repo": "fadern/libplinkio", "name": "plinkio", "ndownloads": 411, "description": "A library for parsing plink genotype files"}, 
{"name": "pyprophet", "argv": 3, "link": "http://github.com/uweschmitt/pyprophet", "repo": "uweschmitt/pyprophet", "ndownloads": 1853, "description": "Python reimplementation of mProphet peak scoring"}, 
{"name": "genonets", "argparse": 1, "argv": 1, "link": "https://github.com/fkhalid/genonets", "repo": "fkhalid/genonets", "ndownloads": 1918, "description": "Framework for creating and analyzing genotype networks from data."}, 
{"link": "http://xapple.github.com/track/", "repo": "track", "name": "track", "ndownloads": 94, "description": "Python package for reading and writing genomic data"}, 
{"name": "xcms", "link": "https://github.com/EricTing/extended-cms", "repo": "EricTing/extended-cms", "click": 3, "ndownloads": 168, "description": "calculated extended contact mode score provided the query and template protein-ligand structures"}, 
{"name": "genipe", "argparse": 5, "argv": 5, "link": "https://github.com/pgxcentre/genipe", "repo": "pgxcentre/genipe", "ndownloads": 379, "description": "An automatic genome-wide imputation pipeline."}, 
{"name": "django-mips", "argv": 1, "link": "https://github.com/michal-stuglik/django-mips", "repo": "michal-stuglik/django-mips", "ndownloads": 262, "description": "A simple API (build on top of the Django Model API) to store and manage MIP (molecular inversion probe) markers."}, 
{"name": "isatools", "argv": 1, "link": "https://github.com/ISA-tools/isa-api", "repo": "ISA-tools/isa-api", "ndownloads": 214, "description": "ISA-API"}, 
{"name": "inmembrane", "optparse": 1, "argv": 1, "link": "http://github.com/boscoh/inmembrane", "repo": "boscoh/inmembrane", "ndownloads": 309, "description": "A bioinformatic pipeline for proteome annotation to predict if a protein is exposed on the surface of a bacteria."}, 
{"link": "https://github.com/nejdetckenobi/drunk", "repo": "nejdetckenobi/drunk", "name": "drunk", "ndownloads": 52, "description": "Weighted Random for Python"}, 
{"link": "https://github.com/biosustain/goodbye-genbank", "repo": "biosustain/goodbye-genbank", "name": "gbgb", "ndownloads": 0, "description": "Goodbye, GenBank is a package for use with Biopython that gives feature annotations from GenBank records a new and better life."}, 
{"link": "https://github.com/kerug/genecoder", "repo": "kerug/genecoder", "name": "genecoder", "ndownloads": 298, "description": "code analysis for genes"}, 
{"name": "fcsparser", "argv": 1, "link": "https://github.com/eyurtsev/fcsparser", "repo": "eyurtsev/fcsparser", "ndownloads": 266, "description": "A python package for reading raw fcs files"}, 
{"name": "edrnsite.vanity", "optparse": 1, "link": "https://github.com/EDRN/edrnsite.vanity", "repo": "EDRN/edrnsite.vanity", "ndownloads": 43, "description": "EDRN Site Vanity"}, 
{"link": "https://github.com/konstantint/intervaltree-bio", "repo": "konstantint/intervaltree-bio", "name": "intervaltree_bio", "ndownloads": 91, "description": "Interval tree convenience classes for genomic data"}, 
{"optparse": 1, "name": "io3d", "argparse": 2, "argv": 4, "link": "https://github.com/mjirik/io3d", "repo": "mjirik/io3d", "ndownloads": 1143, "description": "3D data read and write"}, 
{"name": "pyimzML", "argv": 1, "link": "https://github.com/alexandrovteam/pyimzML", "repo": "alexandrovteam/pyimzML", "ndownloads": 141, "description": "Parser for conversion of imzML 1.1.0 files"}, 
{"link": "https://github.com/gersolar/netcdf", "repo": "gersolar/netcdf", "name": "netcdf", "ndownloads": 791, "description": "A python library that allow to use one or multiple NetCDF files in a transparent way through polimorphic methods."}, 
{"name": "yard", "optparse": 1, "argv": 1, "link": "http://github.com/ntamas/yard", "repo": "ntamas/yard", "ndownloads": 300, "description": "Yet another ROC curve drawer"}, 
{"name": "macroeco", "argv": 2, "link": "http://github.com/jkitzes/macroeco", "repo": "jkitzes/macroeco", "ndownloads": 211, "description": "Ecological pattern analysis in Python"}, 
{"link": "https://github.com/mfitzp/icoshift", "repo": "mfitzp/icoshift", "name": "icoshift", "ndownloads": 282, "description": "icoshift: A versatile tool for the rapid alignment of 1D NMR spectra"}, 
{"optparse": 2, "name": "seqcluster", "argparse": 3, "argv": 2, "link": "http://github.com/lpantano/seqcluster", "repo": "lpantano/seqcluster", "ndownloads": 607, "description": "Small RNA-seq pipeline"}, 
{"optparse": 11, "name": "paleomix", "argparse": 14, "argv": 34, "link": "https://github.com/MikkelSchubert/paleomix", "repo": "MikkelSchubert/paleomix", "ndownloads": 247, "description": "Bioinformatics pipelines for HTS data"}, 
{"link": "https://github.com/jarny/genedataset", "repo": "jarny/genedataset", "name": "genedataset", "ndownloads": 557, "description": "Store and access gene expression datasets and gene definitions."}, 
{"name": "open_worm_analysis_toolbox", "argv": 2, "link": "https://github.com/openworm/open-worm-analysis-toolbox", "repo": "openworm/open-worm-analysis-toolbox", "ndownloads": 484, "description": "Open Worm Analysis Toolbox"}, 
{"link": "https://github.com/alexandrovteam/cpyImagingMSpec", "repo": "alexandrovteam/cpyImagingMSpec", "name": "cpyImagingMSpec", "ndownloads": 265, "description": "utils for processing imaging mass spectrometry data"}, 
{"name": "pyprophet", "argv": 3, "link": "http://github.com/uweschmitt/pyprophet", "repo": "uweschmitt/pyprophet", "ndownloads": 1853, "description": "Python reimplementation of mProphet peak scoring"}, 
{"link": "https://github.com/pgxcentre/gwip", "repo": "pgxcentre/gwip", "name": "gwip", "ndownloads": 77, "description": "An automatic genome-wide imputation pipeline."}, 
{"link": "https://github.com/carlosp420/seqrecord-expanded", "repo": "carlosp420/seqrecord-expanded", "name": "seqrecord_expanded", "ndownloads": 460, "description": "Another SeqRecord class with methods: degenerate seqs, codon positions based on reading frames, etc."}, 
{"name": "haystack_bio", "argparse": 5, "argv": 3, "link": "http://github.com/lucapinello/Haystack", "repo": "lucapinello/Haystack", "ndownloads": 0, "description": "Epigenetic Variability and Transcription Factor Motifs Analysis Pipeline"}, 
{"link": "http://github.com/cokelaer/reports/", "repo": "cokelaer/reports", "name": "reports", "ndownloads": 415, "description": "Quickly create HTML reports using a set of JINJA templates"}, 
{"link": "https://github.com/gersolar/netcdf", "repo": "gersolar/netcdf", "name": "netcdf", "ndownloads": 791, "description": "A python library that allow to use one or multiple NetCDF files in a transparent way through polimorphic methods."}, 
{"link": "https://github.com/ashishbaghudana/PubTator2Anndoc/", "repo": "ashishbaghudana/PubTator2Anndoc", "name": "PubTator2Anndoc", "ndownloads": 106, "description": "Convert PubTator format to Anndoc Format for TagTog"}, 
{"name": "loom-engine", "argparse": 15, "argv": 1, "link": "https://github.com/StanfordBioinformatics/loom", "repo": "StanfordBioinformatics/loom", "ndownloads": 53, "description": "loom workflow engine"}, 
{"name": "pyprophet", "argv": 3, "link": "http://github.com/uweschmitt/pyprophet", "repo": "uweschmitt/pyprophet", "ndownloads": 1853, "description": "Python reimplementation of mProphet peak scoring"}, 
{"name": "axiome", "argparse": 2, "link": "https://github.com/neufeld/AXIOME2", "repo": "neufeld/AXIOME2", "ndownloads": 216, "description": "AXIOME2: Automation Extension and Integration of Microbial Ecology"}, 
{"name": "edrn.theme", "optparse": 1, "link": "https://github.com/EDRN/edrn.theme", "repo": "EDRN/edrn.theme", "ndownloads": 98, "description": "Look and feel for websites of the Early Detection Research Network (EDRN)."}, 
{"name": "pyprophet", "argv": 3, "link": "http://github.com/uweschmitt/pyprophet", "repo": "uweschmitt/pyprophet", "ndownloads": 1853, "description": "Python reimplementation of mProphet peak scoring"}, 
{"name": "fammer", "argparse": 2, "link": "http://github.com/etal/fammer", "repo": "etal/fammer", "ndownloads": 75, "description": "Fammer: Tools for protein superfamily sequence profile alignment and curation."}, 
{"name": "pyxDamerauLevenshtein", "optparse": 1, "argv": 1, "link": "https://github.com/gfairchild/pyxDamerauLevenshtein", "repo": "gfairchild/pyxDamerauLevenshtein", "ndownloads": 545, "description": "pyxDamerauLevenshtein implements the Damerau-Levenshtein (DL) edit distance algorithm for Python in Cython for high performance."}, 
{"name": "hmmus", "argparse": 10, "link": "http://github.com/argriffing/hmmus", "repo": "argriffing/hmmus", "ndownloads": 270, "description": "Posterior decoding with a hidden Markov model"}, 
{"link": "https://github.com/capsid/capsid", "repo": "capsid/capsid", "name": "capsid", "ndownloads": 514, "description": "CaPSID: Computational Pathogen Sequence Identification"}, 
{"name": "runHiC", "argparse": 1, "argv": 1, "link": "https://github.com/XiaoTaoWang/HiC_pipeline", "repo": "XiaoTaoWang/HiC_pipeline", "ndownloads": 243, "description": "A easy-to-use Hi-C processing software based on hiclib"}, 
{"optparse": 6, "name": "nasp", "argparse": 8, "argv": 3, "link": "https://github.com/TGenNorth/nasp", "repo": "TGenNorth/nasp", "ndownloads": 524, "description": "Northern Arizona SNP Pipeline"}, 
{"name": "svviz", "argparse": 2, "argv": 7, "link": "https://github.com/svviz/svviz", "repo": "svviz/svviz", "ndownloads": 978, "description": "A read visualizer for structural variants"}, 
{"name": "topiary", "argparse": 3, "link": "https://github.com/hammerlab/topiary", "repo": "hammerlab/topiary", "ndownloads": 469, "description": "Predict cancer epitopes from cancer sequence data"}, 
{"link": "https://github.com/sseemayer/mixem", "repo": "sseemayer/mixem", "name": "mixem", "ndownloads": 719, "description": "Expectation-Maximization (EM) algorithm for fitting mixtures of probability distributions"}, 
{"optparse": 2, "name": "CompleteGenomicsTools", "argparse": 2, "argv": 1, "link": "https://github.com/seandavi/CompleteGenomicsTools", "repo": "seandavi/CompleteGenomicsTools", "ndownloads": 105, "description": "Tools for manipulating and visualizing data from Complete Genomics"}, 
{"name": "edrndmcc.appserver", "optparse": 1, "link": "https://github.com/EDRN/edrndmcc.appserver", "repo": "EDRN/edrndmcc.appserver", "ndownloads": 89, "description": "EDRN DMCC Application Server policy"}, 
{"name": "taxon_names_resolver", "argparse": 1, "link": "https://github.com/DomBennett/TaxonNamesResolver", "repo": "DomBennett/TaxonNamesResolver", "ndownloads": 206, "description": "Resolve taxonomic names through Global Names Resolver."}, 
{"name": "aclust", "argv": 1, "link": "https://github.com/brentp/aclust/", "repo": "brentp/aclust", "ndownloads": 129, "description": "streaming agglomerative clustering"}, 
{"name": "ariba", "argparse": 7, "argv": 4, "link": "https://github.com/sanger-pathogens/ariba", "repo": "sanger-pathogens/ariba", "ndownloads": 416, "description": "ARIBA: Antibiotic Resistance Identification By Assembly"}, 
{"link": "https://github.com/infant-cognition-tampere/gazelib", "repo": "infant-cognition-tampere/gazelib", "name": "gazelib", "ndownloads": 819, "description": "Software tools to manage and analyze data from eye-trackers"}, 
{"name": "labnote", "argparse": 1, "link": "https://github.com/khughitt/labnote", "repo": "khughitt/labnote", "ndownloads": 221, "description": "Flexible and lightweight tool for generating HTML-based electronic lab notebooks"}, 
{"name": "pyprophet", "argv": 3, "link": "http://github.com/uweschmitt/pyprophet", "repo": "uweschmitt/pyprophet", "ndownloads": 1853, "description": "Python reimplementation of mProphet peak scoring"}, 
{"name": "MolVS", "argparse": 1, "link": "https://github.com/mcs07/MolVS", "repo": "mcs07/MolVS", "ndownloads": 187, "description": "Molecule Validation and Standardization"}, 
{"name": "treemaker", "argparse": 1, "argv": 1, "link": "https://github.com/SimonGreenhill/treemaker", "repo": "SimonGreenhill/treemaker", "ndownloads": 90, "description": "A python tool for generating a Newick formatted tree from alist of classifications"}, 
{"name": "gopca", "argparse": 15, "link": "https://github.com/flo-compbio/gopca", "repo": "flo-compbio/gopca", "ndownloads": 628, "description": "GO-PCA: An Unsupervised Method to Explore Gene Expression Data Using Prior Knowledge"}, 
{"name": "imolecule", "argparse": 1, "argv": 1, "link": "http://github.com/patrickfuller/imolecule/", "repo": "patrickfuller/imolecule", "ndownloads": 1051, "description": "View molecules in the IPython notebook."}, 
{"name": "pyprophet", "argv": 3, "link": "http://github.com/uweschmitt/pyprophet", "repo": "uweschmitt/pyprophet", "ndownloads": 1853, "description": "Python reimplementation of mProphet peak scoring"}, 
{"name": "cancer-api", "argparse": 2, "link": "https://github.com/brunogrande/cancer_api", "repo": "brunogrande/cancer_api", "ndownloads": 574, "description": "A Python framework and API for handling and storing cancer genomics data and metadata."}, 
{"name": "MQ2", "argparse": 1, "argv": 1, "link": "https://github.com/PBR/MQ2/", "repo": "PBR/MQ2", "ndownloads": 169, "description": "MQ\u00b2 aims at extracting and find QTLs from MapQTL output"}, 
{"link": "https://github.com/pypa/pygwas", "repo": "pypa/pygwas", "name": "PyGWAS", "ndownloads": 832, "description": "A GWAS library"}, 
{"link": "https://github.com/limiear/solarbot", "repo": "limiear/solarbot", "name": "solarbot", "ndownloads": 0, "description": "A python library to show the solar radiation of the last past half hour of Pergamino in a twitter timeline."}, 
{"link": "https://github.com/dominicwhite/pylogenetics", "repo": "dominicwhite/pylogenetics", "name": "pylogenetics", "ndownloads": 212, "description": "Phylogenetic analysis tools"}, 
{"name": "pyprophet", "argv": 3, "link": "http://github.com/uweschmitt/pyprophet", "repo": "uweschmitt/pyprophet", "ndownloads": 1853, "description": "Python reimplementation of mProphet peak scoring"}, 
{"name": "pique", "argparse": 2, "argv": 9, "link": "https://github.com/ryneches/pique", "repo": "ryneches/pique", "click": 1, "ndownloads": 255, "description": "An efficient peak finder for high coverage ChIP-seq experiments."}, 
{"link": "http://github.com/davisp/bioneb", "repo": "davisp/bioneb", "name": "BioNEB", "ndownloads": 112, "description": "BioNEB - Bioinformatics utilities"}, 
{"name": "pyprophet", "argv": 3, "link": "http://github.com/uweschmitt/pyprophet", "repo": "uweschmitt/pyprophet", "ndownloads": 1853, "description": "Python reimplementation of mProphet peak scoring"}, 
{"name": "pyprophet", "argv": 3, "link": "http://github.com/uweschmitt/pyprophet", "repo": "uweschmitt/pyprophet", "ndownloads": 1853, "description": "Python reimplementation of mProphet peak scoring"}, 
{"link": "https://github.com/gersolar/netcdf", "repo": "gersolar/netcdf", "name": "netcdf", "ndownloads": 791, "description": "A python library that allow to use one or multiple NetCDF files in a transparent way through polimorphic methods."}, 
{"name": "eke.review", "optparse": 1, "link": "https://github.com/EDRN/eke.review", "repo": "EDRN/eke.review", "ndownloads": 41, "description": "Review and Quality Control for the EDRN Knowledge Environment"}, 
{"link": "https://github.com/ubccr/pinky", "repo": "ubccr/pinky", "name": "pinky", "ndownloads": 63, "description": "pinky - molecular fingerprint library"}, 
{"name": "pyprophet", "argv": 3, "link": "http://github.com/uweschmitt/pyprophet", "repo": "uweschmitt/pyprophet", "ndownloads": 1853, "description": "Python reimplementation of mProphet peak scoring"}, 
{"link": "https://github.com/joshhanna/owllib", "repo": "joshhanna/owllib", "name": "owllib", "ndownloads": 51, "description": "A OWL API built using RDFLib to simplify working with OWL constructs"}, 
{"name": "pique", "argparse": 2, "argv": 9, "link": "https://github.com/ryneches/pique", "repo": "ryneches/pique", "click": 1, "ndownloads": 255, "description": "An efficient peak finder for high coverage ChIP-seq experiments."}, 
{"link": "https://github.com/hammerlab/mhctools", "repo": "hammerlab/mhctools", "name": "mhctools", "ndownloads": 620, "description": "Python interface to running command-line and web-based MHC binding predictors"}, 
{"link": "http://github.com/tdsmith/eleven/", "repo": "tdsmith/eleven", "name": "eleven", "ndownloads": 92, "description": "A friendly implementation of the GeNorm multi-gene RT-qPCR normalization algorithm"}, 
{"link": "https://github.com/kerguler/albopictus", "repo": "kerguler/albopictus", "name": "albopictus", "ndownloads": 105, "description": "Environmentally-driven population dynamics model of Aedes albopictus"}, 
{"name": "cdpybio", "argparse": 1, "link": "https://github.com/cdeboever3/cdpybio", "repo": "cdeboever3/cdpybio", "ndownloads": 493, "description": "A collection of useful methods for working with various bioinformatics data, software output files, etc."}, 
{"name": "CNVkit", "argparse": 4, "argv": 1, "link": "http://github.com/etal/cnvkit", "repo": "etal/cnvkit", "ndownloads": 1193, "description": "Copy number variation toolkit for targeted DNA sequencing."}, 
{"name": "olimex-ekg-emg", "argparse": 2, "link": "https://github.com/logston/olimex-ekg-emg", "repo": "logston/olimex-ekg-emg", "ndownloads": 471, "description": "A package for gathering data from the Olimex EKG/EMG Shield."}, 
{"name": "OpenDiscovery", "argparse": 3, "docopt": 1, "argv": 2, "link": "https://github.com/iamgp/OpenDiscovery", "repo": "iamgp/OpenDiscovery", "ndownloads": 1289, "description": "Computational Drug Discovery Software"}, 
{"name": "pyprophet", "argv": 3, "link": "http://github.com/uweschmitt/pyprophet", "repo": "uweschmitt/pyprophet", "ndownloads": 1853, "description": "Python reimplementation of mProphet peak scoring"}, 
{"link": "http://github.com/davisp/nebgbdiff", "repo": "davisp/nebgbdiff", "name": "nebgbdiff", "ndownloads": 72, "description": "Genbank file logical feature diffing"}, 
{"name": "allensdk", "argparse": 3, "argv": 3, "link": "https://github.com/AllenInstitute/AllenSDK/tree/v0.11.0", "repo": "AllenInstitute/AllenSDK", "ndownloads": 816, "description": "core libraries for the allensdk."}, 
{"link": "http://github.com/akelleh/causality", "repo": "akelleh/causality", "name": "causality", "ndownloads": 491, "description": "Tools for causal analysis"}, 
{"link": "https://github.com/konstantint/ucscgenome", "repo": "konstantint/ucscgenome", "name": "ucscgenome", "ndownloads": 33, "description": "Simple access to the reference genomes at UCSC"}, 
{"name": "mathstats", "argparse": 1, "link": "https://github.com/ksahlin/mathstats", "repo": "ksahlin/mathstats", "ndownloads": 471, "description": "Statistical functions, goodness-of-fit tests and special and special distributions not implemented in scipy/numpy ."}, 
{"name": "solar_radiation_model", "argv": 1, "link": "https://github.com/gersolar/solar_radiation_model", "repo": "gersolar/solar_radiation_model", "ndownloads": 581, "description": "A python script that estimates the solar radiation at the soil level."}, 
{"name": "edrnsite.misccontent", "optparse": 1, "link": "https://github.com/EDRN/edrnsite.misccontent", "repo": "EDRN/edrnsite.misccontent", "ndownloads": 45, "description": "EDRN Miscellaneous Content Types"}, 
{"link": "https://github.com/slowkow/pytabix", "repo": "slowkow/pytabix", "name": "pytabix", "ndownloads": 178, "description": "Python interface for tabix"}, 
{"name": "pybamview", "optparse": 2, "link": "http://github.com/mgymrek/pybamview", "repo": "mgymrek/pybamview", "ndownloads": 421, "description": "Python based BAM alignment viewer"}, 
{"name": "pyprophet", "argv": 3, "link": "http://github.com/uweschmitt/pyprophet", "repo": "uweschmitt/pyprophet", "ndownloads": 1853, "description": "Python reimplementation of mProphet peak scoring"}, 
{"name": "pyprophet", "argv": 3, "link": "http://github.com/uweschmitt/pyprophet", "repo": "uweschmitt/pyprophet", "ndownloads": 1853, "description": "Python reimplementation of mProphet peak scoring"}, 
{"link": "https://github.com/ericmjl/flu-gibson", "repo": "ericmjl/flu-gibson", "name": "FluGibson", "ndownloads": 189, "description": "A Python package for designing influenza reverse genetics primers using the seamless cloning methods (e.g. Gibson assembly, CPEC assembly)."}, 
{"name": "melt", "argparse": 1, "argv": 2, "link": "https://github.com/eclarke/melt", "repo": "eclarke/melt", "ndownloads": 345, "description": "A nucleotide melt temp calculator"}, 
{"name": "thermotools", "argv": 1, "link": "https://github.com/markovmodel/thermotools", "repo": "markovmodel/thermotools", "ndownloads": 388, "description": "lowlevel implementation toolbox for the analyis of multi-ensemble calculations"}, 
{"name": "exif2timestream", "docopt": 1, "link": "https://github.com/borevitzlab/traitcapture-bin", "repo": "borevitzlab/traitcapture-bin", "ndownloads": 1090, "description": "exif2timestream: Rename image files into a timestream from exif data."}, 
{"link": "http://github.com/moonso/rank_mip_variants", "repo": "moonso/rank_mip_variants", "name": "score_mip_variants", "ndownloads": 431, "description": "Annotate vcf variants with a rank score"}, 
{"link": "https://github.com/arose/simpletraj", "repo": "arose/simpletraj", "name": "simpletraj", "ndownloads": 85, "description": "Lightweight coordinate-only trajectory reader based on code from GROMACS, MDAnalysis, VMD."}, 
{"name": "pique", "argparse": 2, "argv": 9, "link": "https://github.com/ryneches/pique", "repo": "ryneches/pique", "click": 1, "ndownloads": 255, "description": "An efficient peak finder for high coverage ChIP-seq experiments."}, 
{"name": "pytcga", "argv": 1, "link": "https://github.com/arahuja/pytcga", "repo": "arahuja/pytcga", "ndownloads": 167, "description": "Store and query public TCGA data"}, 
{"name": "parasail", "argv": 1, "link": "https://github.com/jeffdaily/parasail-python", "repo": "jeffdaily/parasail-python", "ndownloads": 229, "description": "pairwise sequence alignment library"}, 
{"name": "eke.biomarker", "optparse": 1, "link": "https://github.com/EDRN/eke.biomarker", "repo": "EDRN/eke.biomarker", "ndownloads": 167, "description": "Biomarkers for the EDRN Knowledge Environment"}, 
{"name": "pyprophet", "argv": 3, "link": "http://github.com/uweschmitt/pyprophet", "repo": "uweschmitt/pyprophet", "ndownloads": 1853, "description": "Python reimplementation of mProphet peak scoring"}, 
{"name": "MDsrv", "argparse": 1, "link": "https://github.com/arose/mdsrv", "repo": "arose/mdsrv", "ndownloads": 223, "description": "Server for coordinate trajectories from molecular dynamics simulations"}, 
{"name": "methtuple", "argparse": 1, "link": "https://github.com/PeteHaitch/methtuple", "repo": "PeteHaitch/methtuple", "ndownloads": 68, "description": "methtuple"}, 
{"name": "BioMine", "argv": 4, "link": "https://github.com/AdamDS/BioMine", "repo": "AdamDS/BioMine", "ndownloads": 69, "description": "Bioinformatics data-mining"}, 
{"name": "pyprophet", "argv": 3, "link": "http://github.com/uweschmitt/pyprophet", "repo": "uweschmitt/pyprophet", "ndownloads": 1853, "description": "Python reimplementation of mProphet peak scoring"}, 
{"link": "https://github.com/mjirik/larVolumeToObj", "repo": "mjirik/larVolumeToObj", "name": "larVolumeToObj", "ndownloads": 944, "description": "3D data read from pklz and write to obj"}, 
{"name": "eke.committees", "optparse": 1, "link": "https://github.com/EDRN/eke.committees", "repo": "EDRN/eke.committees", "ndownloads": 44, "description": "EDRN Committee list and membership information for the EDRN Knowledge Environment"}, 
{"name": "pyprophet", "argv": 3, "link": "http://github.com/uweschmitt/pyprophet", "repo": "uweschmitt/pyprophet", "ndownloads": 1853, "description": "Python reimplementation of mProphet peak scoring"}, 
{"name": "SCICAST", "argparse": 1, "link": "https://github.com/iandriver/SCICAST", "repo": "iandriver/SCICAST", "ndownloads": 109, "description": "SCICAST: Single Cell Iterative Clustering and Statistical Testing. A package for interrogating single cell sequencing data."}, 
{"name": "EMIRGE", "optparse": 3, "argv": 3, "link": "https://github.com/csmiller/EMIRGE", "repo": "csmiller/EMIRGE", "ndownloads": 626, "description": "EMIRGE reconstructs full length sequences from short sequencing reads"}, 
{"name": "Katana", "argparse": 1, "argv": 3, "link": "https://github.com/umich-brcf-bioinf/Katana", "repo": "umich-brcf-bioinf/Katana", "ndownloads": 105, "description": "Command-line tool to soft-clip reads based on primer locations."}, 
{"link": "https://github.com/hammerlab/datacache", "repo": "hammerlab/datacache", "name": "datacache", "ndownloads": 1291, "description": "Helpers for transparently downloading datasets"}, 
{"name": "frisk", "argparse": 1, "argv": 1, "link": "https://github.com/Adamtaranto/frisk", "repo": "Adamtaranto/frisk", "ndownloads": 503, "description": "frisk: Detection of sequence composition anomalies using multiple order kmers."}, 
{"link": "https://github.com/smdabdoub/qiime-tools", "repo": "smdabdoub/qiime-tools", "name": "qiime-tools", "ndownloads": 197, "description": "Useful additions to the QIIME analysis pipeline including tools for data visualization and cluster-computing."}, 
{"link": "http://github.com/davisp/nebseq", "repo": "davisp/nebseq", "name": "nebseq", "ndownloads": 72, "description": "Basic Biological Sequence Manipulations"}, 
{"link": "https://github.com/samrund/DEnM_Visualizer", "repo": "samrund/DEnM_Visualizer", "name": "DEnM-Visualizer", "ndownloads": 184, "description": "TriKinetics Environnemental Monitor visualiser"}, 
{"link": "https://github.com/DomBennett/MassPhylogenyEstimation", "repo": "DomBennett/MassPhylogenyEstimation", "name": "pglt", "ndownloads": 33, "description": "pG-lt: An automated pipeline for phylogeney generation."}, 
{"name": "HTS-waterworks", "optparse": 12, "argv": 6, "link": "http://github.com/jakebiesinger/HTS-waterworks", "repo": "jakebiesinger/HTS-waterworks", "ndownloads": 36, "description": "A python pipeline for analyzing high-throughput sequencing data"}, 
{"name": "primer3-py", "argv": 1, "link": "https://github.com/libnano/primer3-py", "repo": "libnano/primer3-py", "ndownloads": 1282, "description": "Python bindings for Primer3"}, 
{"name": "pyprophet", "argv": 3, "link": "http://github.com/uweschmitt/pyprophet", "repo": "uweschmitt/pyprophet", "ndownloads": 1853, "description": "Python reimplementation of mProphet peak scoring"}, 
{"name": "imtools", "argparse": 6, "argv": 4, "link": "https://github.com/mjirik/imtools", "repo": "mjirik/imtools", "ndownloads": 943, "description": "3D data processing toolbox"}, 
{"name": "jpl.mcl.protocol", "optparse": 1, "link": "https://github.com/MCLConsortium/jpl.mcl.protocol", "repo": "MCLConsortium/jpl.mcl.protocol", "ndownloads": 0, "description": "Study and protocol information for the MCL"}, 
{"name": "eke.study", "optparse": 1, "link": "https://github.com/EDRN/eke.study", "repo": "EDRN/eke.study", "ndownloads": 87, "description": "Study and protocol information for the EDRN Knowledge Environment"}, 
{"name": "eke.site", "optparse": 1, "link": "https://github.com/EDRN/eke.site", "repo": "EDRN/eke.site", "ndownloads": 123, "description": "Site and staff information for the EDRN Knowledge Environment"}, 
{"name": "eke.specimens", "optparse": 1, "argv": 1, "link": "https://github.com/EDRN/eke.specimens", "repo": "EDRN/eke.specimens", "ndownloads": 80, "description": "ERNE Specimen Management for the EDRN Knowledge Environment"}, 
{"name": "flotilla", "argparse": 1, "argv": 3, "link": "http://github.com/YeoLab/flotilla", "repo": "YeoLab/flotilla", "click": 2, "ndownloads": 234, "description": "Embark on a journey of single-cell data exploration."}, 
{"link": "http://github.com/kblin/python-secmet/", "repo": "kblin/python-secmet", "name": "secmet", "ndownloads": 0, "description": "A library to handle secondary metabolite annotations"}, 
{"name": "reciprocal_smallest_distance", "argparse": 3, "link": "https://github.com/todddeluca/reciprocal_smallest_distance", "repo": "todddeluca/reciprocal_smallest_distance", "ndownloads": 159, "description": "Reciprocal Smallest Distance (RSD) finds pairwise orthologous genes using global sequence alignment and maximum likelihood evolutionary distance estimates."}, 
{"name": "tstk", "argparse": 9, "argv": 10, "link": "https://github.com/tdido/tstk", "repo": "tdido/tstk", "ndownloads": 83, "description": "A bunch of tools for sequencing data analysis"}, 
{"name": "pyprophet", "argv": 3, "link": "http://github.com/uweschmitt/pyprophet", "repo": "uweschmitt/pyprophet", "ndownloads": 1853, "description": "Python reimplementation of mProphet peak scoring"}, 
{"name": "bhmm", "argv": 1, "link": "https://github.com/bhmm/bhmm", "repo": "bhmm/bhmm", "ndownloads": 403, "description": "BHMM: A toolkit for Bayesian hidden Markov model analysis of single-molecule trajectories."}, 
{"name": "PyRhO", "link": "https://github.com/ProjectPyRhO/PyRhO/", "repo": "ProjectPyRhO/PyRhO", "click": 1, "ndownloads": 60, "description": "Fit and characterise rhodopsin photocurrents"}, 
{"name": "pydvkbiology", "argv": 1, "link": "http://github.com/dvklopfenstein/biocode", "repo": "dvklopfenstein/biocode", "ndownloads": 555, "description": "Python scripts used in my biology/bioinformatics research"}, 
{"name": "metameta", "argparse": 5, "link": "https://github.com/Brazelton-Lab/metameta/", "repo": "Brazelton-Lab/metameta", "ndownloads": 2084, "description": "Toolkit for analyzing meta-transcriptome/metagenome mapping data"}, 
{"link": "https://github.com/pgroth/ops.py", "repo": "pgroth/ops.py", "name": "ops.py", "ndownloads": 65, "description": "Python Library for the Open PHACTS Platform API"}, 
{"name": "cigar", "optparse": 1, "link": "https://github.com/brentp/cigar", "repo": "brentp/cigar", "ndownloads": 152, "description": "manipulate SAM cigar strings"}, 
{"name": "PyVCF", "argparse": 4, "argv": 3, "link": "https://github.com/jamescasbon/PyVCF", "repo": "jamescasbon/PyVCF", "ndownloads": 2693, "description": "Variant Call Format (VCF) parser for Python"}, 
{"name": "zither", "argparse": 2, "argv": 4, "link": "https://github.com/umich-brcf-bioinf/Zither", "repo": "umich-brcf-bioinf/Zither", "ndownloads": 60, "description": "Command-line tool to pull raw depths and alt freqs from BAM file(s) based on an existing VCF, writing output as new VCF to stdout."}, 
{"name": "RNFtools", "argparse": 1, "argv": 2, "link": "http://github.com/karel-brinda/rnftools", "repo": "karel-brinda/rnftools", "ndownloads": 502, "description": "A package for Read Naming Format (RNF)."}, 
{"link": "https://github.com/alexandrovteam/cpyMSpec", "repo": "alexandrovteam/cpyMSpec", "name": "cpyMSpec", "ndownloads": 1150, "description": "isotope pattern calculator for small molecules"}, 
{"link": "https://github.com/fadapa/fadapa", "repo": "fadapa/fadapa", "name": "fadapa", "ndownloads": 181, "description": "FAstqc DAta PArser - A minimal parser to parse FastQC output data in Python"}, 
{"link": "http://pymzml.github.com", "repo": "", "name": "pymzML", "ndownloads": 233, "description": "Python module for high-throughput mzML parsing"}, 
{"link": "https://github.com/m1m0r1/galgo", "repo": "m1m0r1/galgo", "name": "galgo", "ndownloads": 1589, "description": "A collection of algorithms and tools for genome analysis"}, 
{"name": "molbiox", "argparse": 4, "argv": 3, "link": "https://github.com/frozflame/molbiox", "repo": "frozflame/molbiox", "ndownloads": 309, "description": "utilities for bioinformatics"}, 
{"name": "pro_clash", "argparse": 10, "argv": 10, "link": "http://github.com/asafpr/pro_clash", "repo": "asafpr/pro_clash", "ndownloads": 1274, "description": "Processing PRO-CLASH experiments results"}, 
{"optparse": 1, "name": "improse", "argparse": 1, "argv": 1, "link": "https://github.com/asntech/improse", "repo": "asntech/improse", "ndownloads": 66, "description": "Integrated Methods for Prediction of Super-Enhancers"}, 
{"name": "biotools", "optparse": 2, "argv": 5, "link": "https://github.com/sonwell/biotools", "repo": "sonwell/biotools", "ndownloads": 1849, "description": "A bunch of bioinformatics utilities."}, 
{"link": "https://github.com/gersolar/netcdf", "repo": "gersolar/netcdf", "name": "netcdf", "ndownloads": 791, "description": "A python library that allow to use one or multiple NetCDF files in a transparent way through polimorphic methods."}, 
{"link": "https://github.com/louiejtaylor/pyViKO", "repo": "louiejtaylor/pyViKO", "name": "pyviko", "ndownloads": 731, "description": "Design knockout viruses in Python"}, 
{"name": "BESST", "argparse": 5, "argv": 2, "link": "https://github.com/ksahlin/BESST", "repo": "ksahlin/BESST", "ndownloads": 1004, "description": "Scaffolder for genomic assemblies."}, 
{"name": "pyprophet", "argv": 3, "link": "http://github.com/uweschmitt/pyprophet", "repo": "uweschmitt/pyprophet", "ndownloads": 1853, "description": "Python reimplementation of mProphet peak scoring"}, 
{"link": "http://github.com/limno/parallelblast/", "repo": "limno/parallelblast", "name": "parallelblast", "ndownloads": 0, "description": "Parallelize BLAST searches by splitting the input"}, 
{"link": "https://github.com/dlmeduLi/libsam", "repo": "dlmeduLi/libsam", "name": "libsam", "ndownloads": 303, "description": "Bio-Informatics sam file libraries."}, 
{"name": "cockatoo", "link": "https://github.com/ubccr/cockatoo", "repo": "ubccr/cockatoo", "click": 2, "ndownloads": 172, "description": "cockatoo - A similarity metric for macromolecular crystallization conditions"}, 
{"name": "sam2fasta", "optparse": 1, "argv": 1, "link": "https://github.com/mhozza/sam2fasta", "repo": "mhozza/sam2fasta", "ndownloads": 0, "description": "Simple script to convert sam file to fasta format."}, 
{"name": "bold_retriever", "argparse": 1, "link": "https://github.com/carlosp420/bold_retriever", "repo": "carlosp420/bold_retriever", "ndownloads": 1185, "description": "It queries the BOLD database to get identification of taxa based on COI sequences"}, 
{"optparse": 3, "name": "gimmemotifs", "argparse": 2, "argv": 4, "link": "https://github.com/simonvh/gimmemotifs/", "repo": "simonvh/gimmemotifs", "ndownloads": 192, "description": "GimmeMotifs is a motif prediction pipeline."}, 
{"name": "RNFtools", "argparse": 1, "argv": 2, "link": "http://github.com/karel-brinda/rnftools", "repo": "karel-brinda/rnftools", "ndownloads": 502, "description": "A package for Read Naming Format (RNF)."}, 
{"link": "https://github.com/jdrudolph/goenrich", "repo": "jdrudolph/goenrich", "name": "goenrich", "ndownloads": 546, "description": "GO enrichment with python -- pandas meets networkx"}, 
{"name": "jacquard", "argparse": 14, "argv": 2, "link": "https://github.com/umich-brcf-bioinf/Jacquard", "repo": "umich-brcf-bioinf/Jacquard", "ndownloads": 193, "description": "Command-line tools to expedite analysis of Variant Call Format (VCF) files."}, 
{"link": "http://delafont.github.com/maplot", "repo": "maplot", "name": "maplot", "ndownloads": 105, "description": "Python package for creating interactive MA-plots"}, 
{"link": "https://github.com/chaimleib/intervaltree", "repo": "chaimleib/intervaltree", "name": "intervaltree", "ndownloads": 3717, "description": "Editable interval tree data structure for Python 2 and 3"}, 
{"name": "edrnsite.funding", "optparse": 1, "link": "https://github.com/EDRN/edrnsite.funding", "repo": "EDRN/edrnsite.funding", "ndownloads": 42, "description": "EDRN Funding Opportunities"}, 
{"link": "https://github.com/legaultmarc/gepyto", "repo": "legaultmarc/gepyto", "name": "gepyto", "ndownloads": 281, "description": "Utilities and tools to interface with genomic databases and to facilitate common bioinformatics tasks."}, 
{"name": "pyprophet", "argv": 3, "link": "http://github.com/uweschmitt/pyprophet", "repo": "uweschmitt/pyprophet", "ndownloads": 1853, "description": "Python reimplementation of mProphet peak scoring"}, 
{"name": "pyprophet", "argv": 3, "link": "http://github.com/uweschmitt/pyprophet", "repo": "uweschmitt/pyprophet", "ndownloads": 1853, "description": "Python reimplementation of mProphet peak scoring"}, 
{"link": "https://github.com/konstantint/PyIntervalTree", "repo": "konstantint/PyIntervalTree", "name": "PyIntervalTree", "ndownloads": 183, "description": "Mutable, self-balancing interval tree"}, 
{"name": "edrn.labcas.ui", "optparse": 1, "argv": 1, "link": "https://github.com/EDRN/edrn.labcas.ui", "repo": "EDRN/edrn.labcas.ui", "ndownloads": 0, "description": "User interface for LabCAS, for EDRN"}, 
{"name": "cdpipelines", "argparse": 4, "link": "https://github.com/cdeboever3/cdpipelines", "repo": "cdeboever3/cdpipelines", "ndownloads": 469, "description": "Various bioinformatics pipelines."}, 
{"link": "https://github.com/ewiger/Jterator", "repo": "ewiger/Jterator", "name": "Jterator", "ndownloads": 36, "description": "A minimalistic pipeline engine"}, 
{"name": "pyprophet", "argv": 3, "link": "http://github.com/uweschmitt/pyprophet", "repo": "uweschmitt/pyprophet", "ndownloads": 1853, "description": "Python reimplementation of mProphet peak scoring"}, 
{"name": "pymer", "docopt": 2, "argv": 2, "link": "https://github.com/kdmurray91/pymer", "repo": "kdmurray91/pymer", "ndownloads": 457, "description": "pymer: Pythonic fast k-mer counting routines"}, 
{"link": "https://github.com/iskandr/fancyimpute", "repo": "iskandr/fancyimpute", "name": "fancyimpute", "ndownloads": 347, "description": "Matrix completion and feature imputation algorithms"}, 
{"name": "pyprophet", "argv": 3, "link": "http://github.com/uweschmitt/pyprophet", "repo": "uweschmitt/pyprophet", "ndownloads": 1853, "description": "Python reimplementation of mProphet peak scoring"}, 
{"name": "Pathomx", "optparse": 1, "argv": 3, "link": "https://github.com/pathomx/pathomx", "repo": "pathomx/pathomx", "click": 4, "ndownloads": 256, "description": "Metabolic pathway visualisation and analysis."}, 
{"name": "sumac", "argparse": 1, "link": "https://github.com/wf8/sumac", "repo": "wf8/sumac", "ndownloads": 122, "description": "SUMAC: Supermatrix Constructor"}, 
{"name": "VFClust", "argparse": 1, "argv": 1, "link": "https://github.com/speechinformaticslab/vfclust", "repo": "speechinformaticslab/vfclust", "ndownloads": 90, "description": "Clustering of Verbal Fluency responses."}, 
{"name": "pyprophet", "argv": 3, "link": "http://github.com/uweschmitt/pyprophet", "repo": "uweschmitt/pyprophet", "ndownloads": 1853, "description": "Python reimplementation of mProphet peak scoring"}, 
{"link": "https://github.com/flo-compbio/xlmhg", "repo": "flo-compbio/xlmhg", "name": "xlmhg", "ndownloads": 562, "description": "XL-mHG: A Semiparametric Test for Enrichment"}, 
{"name": "pyprophet", "argv": 3, "link": "http://github.com/uweschmitt/pyprophet", "repo": "uweschmitt/pyprophet", "ndownloads": 1853, "description": "Python reimplementation of mProphet peak scoring"}, 
{"link": "https://github.com/timeu/gwaportal-analysis-pipeline", "repo": "timeu/gwaportal-analysis-pipeline", "name": "gwaportalpipeline", "ndownloads": 594, "description": "Analysis-pipeline for GWA-Portal"}, 
{"link": "https://github.com/gersolar/netcdf", "repo": "gersolar/netcdf", "name": "netcdf", "ndownloads": 791, "description": "A python library that allow to use one or multiple NetCDF files in a transparent way through polimorphic methods."}, 
{"name": "edrnsite.policy", "optparse": 1, "link": "https://github.com/EDRN/edrnsite.policy", "repo": "EDRN/edrnsite.policy", "click": 1, "ndownloads": 245, "description": "EDRN Public Portal Site Policy and Component Orchestration"}, 
{"link": "https://github.com/gersolar/netcdf", "repo": "gersolar/netcdf", "name": "netcdf", "ndownloads": 791, "description": "A python library that allow to use one or multiple NetCDF files in a transparent way through polimorphic methods."}, 
{"name": "seqtools", "argparse": 1, "argv": 1, "link": "http://github.com/faircloth-lab/seqtools/", "repo": "faircloth-lab/seqtools", "ndownloads": 123, "description": "Tools for sequence and alignment manipulation"}, 
{"link": "https://github.com/annazhukova/mod_sbml", "repo": "annazhukova/mod_sbml", "name": "mod_sbml", "ndownloads": 0, "description": "Utilities for working with SBML models."}, 
{"name": "moira", "argparse": 1, "link": "https://github.com/fpusan/moira", "repo": "fpusan/moira", "ndownloads": 731, "description": "Quality-filter raw sequence reads using the Poisson binomial filtering algorithm"}, 
{"link": "https://github.com/hammerlab/epitopes", "repo": "hammerlab/epitopes", "name": "epitopes", "ndownloads": 150, "description": "Python interface to IEDB and other immune epitope data"}, 
{"name": "BioSignalML", "optparse": 1, "argv": 2, "link": "https://github.com/dbrnz/biosignalml-corelib", "repo": "dbrnz/biosignalml-corelib", "ndownloads": 429, "description": "Python BioSignal Abstraction Library"}, 
{"name": "targetinteractionfinder", "argparse": 1, "link": "https://github.com/ariutta/target-interaction-finder", "repo": "ariutta/target-interaction-finder", "ndownloads": 32, "description": "Map exRNA to proteins"}, 
{"name": "mucor", "argparse": 7, "link": "http://github.com/blachlylab/mucor", "repo": "blachlylab/mucor", "ndownloads": 95, "description": "Genomic Variant Aggregation and Mutation Correlation"}, 
 { "repo": "fadern/epigen", "ndownloads": 46, "link": "https://github.com/fadern/epigen", "name": "epigen", "description": "A tool for genetic data under epistatic models" }, 
 { "repo": "davisp/nebpack", "ndownloads": 106, "link": "http://github.com/davisp/nebpack", "name": "nebpack", "description": "Store annotations in Git repositories." }, 
 { "argparse": 3, "ndownloads": 0, "name": "gopca-server", "repo": "flo-compbio/gopca-server", "link": "https://github.com/flo-compbio/gopca-server", "description": "GO-PCA Server: A tornado-based web server for running GO-PCA" }, 
 { "ndownloads": 122, "name": "django-blastplus", "argv": 1, "repo": "michal-stuglik/django-blastplus", "link": "https://github.com/michal-stuglik/django-blastplus", "description": "A simple Django app to conduct web-based blast+ local alignment search." }, 
 { "repo": "tavinathanson/cohorts", "ndownloads": 0, "link": "https://github.com/tavinathanson/cohorts", "name": "cohorts", "description": "Utilities for analyzing mutations and neoepitopes in patient cohorts" }, 
 { "ndownloads": 1542, "name": "vcftoolbox", "argv": 1, "repo": "moonso/vcftoolbox", "link": "http://github.com/moonso/vcftoolbox", "click": 1, "description": "Tools for manipulating and parsing vcf files" }, 
 { "repo": "gersolar/noaadem", "ndownloads": 419, "link": "https://github.com/gersolar/noaadem", "name": "noaadem", "description": "A python library that simplify the access to the NOAA digitalelevation map." }, 
 { "ndownloads": 828, "name": "QtIPy", "argv": 1, "repo": "mfitzp/qtipy", "link": "https://github.com/mfitzp/qtipy", "description": "The data automator! Auto-run IPython notebooks on file triggers. Qt interface." }, 
 { "ndownloads": 1270, "name": "vcf_parser", "repo": "moonso/vcf_parser", "link": "http://github.com/moonso/vcf_parser", "click": 3, "description": "Parsing vcf files" }, 
 { "repo": "robinandeer/chanjo-ccds", "ndownloads": 124, "link": "https://github.com/robinandeer/chanjo-ccds", "name": "chanjo-ccds", "description": "CCDS to Chanjo BED converter" }, 
 { "ndownloads": 168, "name": "PyExp", "argv": 1, "repo": "ad3002/PyExp", "link": "http://github.com/ad3002/PyExp", "description": "A microframework for small computational experiments." }, 
 { "ndownloads": 219, "name": "jicimagelib", "argv": 1, "repo": "JIC-CSB/jicimagelib", "link": "https://github.com/JIC-CSB/jicimagelib", "description": "Python package designed to make it easy to work with microscopy images." }, 
 { "argparse": 1, "ndownloads": 0, "name": "topeology", "repo": "hammerlab/topeology", "link": "https://github.com/hammerlab/topeology", "description": "Compare epitope homology" }, 
 { "argparse": 1, "ndownloads": 1332, "name": "varcode", "repo": "hammerlab/varcode", "link": "https://github.com/hammerlab/varcode", "description": "Variant annotation in Python" }, 
 { "ndownloads": 89, "name": "qiita-spots", "argv": 1, "repo": "biocore/qiita", "link": "https://github.com/biocore/qiita", "click": 14, "description": "Qiita: Spot Patterns" }, 
 { "ndownloads": 674, "name": "edrn.summarizer", "optparse": 1, "repo": "EDRN/edrn.summarizer", "link": "https://github.com/EDRN/edrn.summarizer", "description": "EDRN Summarizer Server" }, 
 { "repo": "Moa", "ndownloads": 1233, "link": "http://mfiers.github.com/Moa/", "name": "moa", "description": "Moa - command-line workflows (in bioinformatics)" }, 
 { "argparse": 26, "ndownloads": 353, "name": "pyGenClean", "repo": "lemieuxl/pyGenClean", "link": "https://github.com/lemieuxl/pyGenClean", "description": "Automated data clean up pipeline for genetic data" }, 
 { "argparse": 23, "ndownloads": 31, "name": "peyotl", "optparse": 1, "argv": 36, "repo": "OpenTreeOfLife/peyotl", "link": "https://github.com/OpenTreeOfLife/peyotl", "description": "Library for interacting with Open Tree of Life resources" }, 
 { "repo": "danvk/bai-indexer", "ndownloads": 43, "link": "https://github.com/danvk/bai-indexer/", "name": "bai-indexer", "description": "An index for your BAM Index (BAI)" }, 
 { "argparse": 4, "ndownloads": 748, "name": "SeqFindr", "argv": 1, "repo": "mscook/SeqFindr", "link": "http://github.com/mscook/SeqFindr", "description": "A tool to easily create informative genomic feature plots" }, 
 { "repo": "weng-lab/umitools", "ndownloads": 215, "link": "https://github.com/weng-lab/umitools", "name": "umitools", "description": "A toolset for handling sequencing data with unique molecular identifiers (UMIs)" }, 
 { "repo": "mfitzp/accura2fcs", "ndownloads": 81, "link": "https://github.com/mfitzp/accura2fcs", "name": "accuri2fcs", "description": "Convert Accuri format flow cytometry files to standard .fcs" }, 
 { "repo": "marinkaz/scikit-fusion", "ndownloads": 819, "link": "http://github.com/marinkaz/scikit-fusion", "name": "scikit-fusion", "description": "A Python module for data fusion built on top of factorized models." }, 
 { "repo": "gersolar/netcdf", "ndownloads": 791, "link": "https://github.com/gersolar/netcdf", "name": "netcdf", "description": "A python library that allow to use one or multiple NetCDF files in a transparent way through polimorphic methods." }, 
 { "repo": "konstantint/pyliftover", "ndownloads": 147, "link": "https://github.com/konstantint/pyliftover", "name": "pyliftover", "description": "Pure-python implementation of UCSC ``liftOver`` genome coordinate conversion." }, 
 { "ndownloads": 1853, "name": "pyprophet", "argv": 3, "repo": "uweschmitt/pyprophet", "link": "http://github.com/uweschmitt/pyprophet", "description": "Python reimplementation of mProphet peak scoring" }, 
 { "argparse": 17, "ndownloads": 0, "name": "covest", "repo": "mhozza/covest", "link": "https://github.com/mhozza/covest", "description": "Covest estimates the coverage and genome size, just from k-mer abundance histogram computed from DNA sequences reads." }, 
 { "ndownloads": 1853, "name": "pyprophet", "argv": 3, "repo": "uweschmitt/pyprophet", "link": "http://github.com/uweschmitt/pyprophet", "description": "Python reimplementation of mProphet peak scoring" }, 
 { "argparse": 6, "ndownloads": 102, "name": "TransVar", "argv": 4, "repo": "zwdzwd/transvar", "link": "https://github.com/zwdzwd/transvar", "description": "Transcript-based Variant annotator" }, 
 { "repo": "rayblick/Virtual-Ecologist", "ndownloads": 149, "link": "https://github.com/rayblick/Virtual-Ecologist", "name": "virtualecologist", "description": "Optimize transect length in ecological surveys." }, 
 { "ndownloads": 1853, "name": "pyprophet", "argv": 3, "repo": "uweschmitt/pyprophet", "link": "http://github.com/uweschmitt/pyprophet", "description": "Python reimplementation of mProphet peak scoring" }, 
 { "ndownloads": 574, "name": "burrito-fillings", "optparse": 2, "argv": 1, "repo": "biocore/burrito-fillings", "link": "https://github.com/biocore/burrito-fillings", "description": "burrito-fillings: burrito application controllers for bioinformatics" }, 
 { "argparse": 8, "ndownloads": 793, "name": "genhub", "argv": 1, "repo": "standage/genhub", "link": "http://github.com/standage/genhub", "description": "Collect and pre-process annotated genome assemblies" }, 
 { "argparse": 1, "ndownloads": 502, "name": "RNFtools", "argv": 2, "repo": "karel-brinda/rnftools", "link": "http://github.com/karel-brinda/rnftools", "description": "A package for Read Naming Format (RNF)." }, 
 { "argparse": 1, "ndownloads": 1187, "name": "solvebio", "argv": 1, "repo": "solvebio/solvebio-python", "link": "https://github.com/solvebio/solvebio-python", "description": "The SolveBio Python client" }, 
 { "ndownloads": 158, "name": "plumbing", "argv": 1, "repo": "xapple/plumbing", "link": "http://github.com/xapple/plumbing/", "description": "Helps with plumbing-type programing in python." }, 
 { "argparse": 1, "ndownloads": 50, "name": "mirmap", "argv": 1, "repo": "prashnts/mirmap", "link": "https://github.com/prashnts/mirmap", "description": "Comprehensive prediction of microRNA target repression strength | Vejnar et. al" }, 
 { "ndownloads": 169, "name": "cxio", "argv": 2, "repo": "idekerlab/cxio_python", "link": "https://github.com/idekerlab/cxio_python", "description": "Utility to parse CX JSON streams" }, 
 { "argparse": 3, "ndownloads": 0, "name": "ChunkyPipes", "argv": 7, "repo": "djf604/chunky-pipes", "link": "https://github.com/djf604/chunky-pipes", "description": "Pipeline design and distribution framework" }, 
 { "argparse": 2, "ndownloads": 1007, "name": "toolshed", "optparse": 2, "argv": 1, "repo": "brentp/toolshed", "link": "https://github.com/brentp/toolshed/", "description": "Tools for data" }, 
 { "repo": "monty-carlo/monty-carlo", "ndownloads": 267, "link": "http://github.com/monty-carlo/monty-carlo/", "name": "Monty-Carlo", "description": "Monty Carlo is a modular Monte Carlo engine, suitable for statistical systems." }, 
 { "repo": "jjfarrell/hla-genotyper", "ndownloads": 95, "link": "http://github.com/jjfarrell/hla-genotyper", "name": "hla-genotyper", "description": "Tool to predict HLA genotypes from RNA-Seq and DNA-Seq Data" }, 
 { "repo": "flo-compbio/goparser", "ndownloads": 374, "link": "https://github.com/flo-compbio/goparser", "name": "goparser", "description": "GOparser - A Python Framework for Working with Gene Ontology (GO) Terms and Annotations" }, 
 { "ndownloads": 1853, "name": "pyprophet", "argv": 3, "repo": "uweschmitt/pyprophet", "link": "http://github.com/uweschmitt/pyprophet", "description": "Python reimplementation of mProphet peak scoring" }, 
 { "repo": "asalomatov/utlts", "ndownloads": 334, "link": "https://github.com/asalomatov/utlts", "name": "utlts", "description": "Utility functions." }, 
 { "ndownloads": 364, "name": "ECLAIR", "optparse": 1, "argv": 1, "repo": "GGiecold/ECLAIR", "link": "https://github.com/GGiecold/ECLAIR", "description": "Robust inference of cell lineages from gene expression data via consensus clustering and the aggregation of ensembles of minimum spanning trees." }, 
 { "argparse": 4, "ndownloads": 307, "name": "kronos-pipeliner", "argv": 1, "repo": "jtaghiyar/kronos", "link": "https://github.com/jtaghiyar/kronos", "description": "A workflow assembler for genome analytics and informatics" }, 
 { "argparse": 2, "ndownloads": 255, "name": "pique", "argv": 9, "repo": "ryneches/pique", "link": "https://github.com/ryneches/pique", "click": 1, "description": "An efficient peak finder for high coverage ChIP-seq experiments." }, 
 { "ndownloads": 1853, "name": "pyprophet", "argv": 3, "repo": "uweschmitt/pyprophet", "link": "http://github.com/uweschmitt/pyprophet", "description": "Python reimplementation of mProphet peak scoring" }, 
 { "argparse": 5, "ndownloads": 199, "name": "swift-commander", "optparse": 1, "argv": 2, "repo": "FredHutch/swift-commander", "link": "https://github.com/FredHutch/swift-commander", "description": "swift commander (swc) is a wrapper to various command line client tools for openstack swift cloud storage systems." }, 
 { "argparse": 1, "ndownloads": 184, "name": "pergenie", "repo": "perGENIE/pergenie-cli", "link": "https://github.com/perGENIE/pergenie-cli", "description": "perGENIE is a Web/CUI application for personal genome interpretation." }, 
 { "ndownloads": 942, "name": "pyfasta", "optparse": 2, "argv": 2, "repo": "brentp/pyfasta", "link": "http://github.com/brentp/pyfasta/", "description": "fast, memory-efficient, pythonic (and command-line) access to fasta sequence files" }, 
 { "argparse": 1, "ndownloads": 0, "name": "canarymd", "repo": "canaryhealth/canarymd-python", "link": "http://github.com/canaryhealth/canarymd-python", "description": "A python client library that allows easy integration with Canary" }, 
 { "argparse": 17, "ndownloads": 267, "name": "taxtastic", "argv": 7, "repo": "fhcrc/taxtastic", "link": "https://github.com/fhcrc/taxtastic", "description": "Tools for taxonomic naming and annotation" }, 
 { "repo": "EnricoGiampieri/keggrest.git", "ndownloads": 76, "link": "https://github.com/EnricoGiampieri/keggrest.git", "name": "keggrest", "description": "Basic frontend for the kegg database rest API" }, 
 { "ndownloads": 862, "name": "python-bioformats", "argv": 1, "repo": "CellProfiler/python-bioformats", "link": "http://github.com/CellProfiler/python-bioformats/", "description": "Read and write life sciences file formats" }, 
 { "repo": "davisp/nebgb", "ndownloads": 69, "link": "http://github.com/davisp/nebgb", "name": "nebfa", "description": "Fasta file parser." }, 
 { "repo": "mfcovington/djangocms-shiny-app", "ndownloads": 111, "link": "https://github.com/mfcovington/djangocms-shiny-app", "name": "djangocms-shiny-app", "description": "A Django app for adding R Shiny apps to a Django site with django CMS-specific features" }, 
 { "repo": "jqsunac/PyDAIR", "ndownloads": 0, "link": "https://github.com/jqsunac/PyDAIR", "name": "PyDAIR", "description": "Python library for diversity analysis of immune repertoire." }, 
 { "argparse": 5, "ndownloads": 530, "name": "glypy", "argv": 5, "repo": "mobiusklein/glypy", "link": "https://github.com/mobiusklein/glypy", "description": "A Glycoinformatics Toolkit" }, 
 { "ndownloads": 94, "name": "sode", "argv": 16, "repo": "oscarbenjamin/sode", "link": "https://github.com/oscarbenjamin/sode", "description": "Python/Cython lib for solving Stochastic Ordinary Differential Equations" }, 
 { "argparse": 2, "ndownloads": 242, "name": "mvtest", "optparse": 1, "argv": 17, "repo": "edwards-lab/MVtest", "link": "https://github.com/edwards-lab/MVtest", "description": "['GWAS analysis']" }, 
 { "repo": "idekerlab/hdsubnetfinder", "ndownloads": 155, "link": "https://github.com/idekerlab/hdsubnetfinder", "name": "hdsubnetfinder", "description": "Heat Diffusion Sub-network Finder" }, 
 { "repo": "gersolar/noaaclass", "ndownloads": 787, "link": "https://github.com/gersolar/noaaclass", "name": "noaaclass", "description": "A python library that allow to request images to the NOAA CLASS (Comprehensive Large Array-Data Stewardship System)." }, 
 { "ndownloads": 420, "name": "rnacounter", "repo": "delafont/rnacounter", "link": "https://github.com/delafont/rnacounter", "docopt": 4, "description": "Estimate abundances of genomic features from read densities" }, 
 { "repo": "genepattern/genepattern-notebook", "ndownloads": 591, "link": "https://github.com/genepattern/genepattern-notebook", "name": "genepattern-notebook", "description": "GenePattern Notebook extension for Jupyter" }, 
 { "argparse": 1, "ndownloads": 2654, "name": "pytraj", "argv": 25, "repo": "Amber-MD/pytraj", "link": "https://github.com/Amber-MD/pytraj", "description": "Python API for cpptraj: a data analysis package for biomolecular simulation" }, 
 { "repo": "idekerlab/py2cytoscape", "ndownloads": 454, "link": "https://github.com/idekerlab/py2cytoscape", "name": "py2cytoscape", "description": "Utilities to use Cytoscape and Cytoscape.js from Python" }, 
 { "repo": "HubLot/groio", "ndownloads": 82, "link": "https://github.com/HubLot/groio", "name": "groio", "description": "A simple library for gro files" }, 
 { "repo": "briwilcox/Concurrent-Pandas", "ndownloads": 145, "link": "https://github.com/briwilcox/Concurrent-Pandas", "name": "ConcurrentPandas", "description": "Download data using pandas with multi-threading and multi-processing." }, 
 { "argparse": 1, "ndownloads": 296, "name": "checkmyclones", "repo": "benjschiller/checkmyclones", "link": "http://github.com/benjschiller/checkmyclones", "description": "Provides tools to check Sanger sequencing results \t (or any plain-text or FASTQ files) against a set of reference \t sequences, provided in any reasonable format (including coordinates)" }, 
 { "ndownloads": 34, "name": "PyFormatTransformer", "optparse": 1, "argv": 1, "repo": "jamesrhester/PyFormatTransformer", "link": "http://github.com/jamesrhester/PyFormatTransformer", "description": "Generic framework for translating between scientific data formats" }, 
 { "ndownloads": 1853, "name": "pyprophet", "argv": 3, "repo": "uweschmitt/pyprophet", "link": "http://github.com/uweschmitt/pyprophet", "description": "Python reimplementation of mProphet peak scoring" }, 
 { "repo": "mjirik/py3DSeedEditor", "ndownloads": 1325, "link": "https://github.com/mjirik/py3DSeedEditor", "name": "sed3", "description": "3D viewer and editor of color seeds" }, 
 { "repo": "prashnts/metarna", "ndownloads": 705, "link": "https://github.com/prashnts/metarna", "name": "metarna", "description": "Finds target sites for the miRNAs in genomic sequences." }, 
 { "ndownloads": 43, "name": "edrnsite.portlets", "optparse": 1, "repo": "EDRN/edrnsite.portlets", "link": "https://github.com/EDRN/edrnsite.portlets", "description": "Portlets for the EDRN Public Portal" }, 
 { "ndownloads": 128, "name": "pydpc", "argv": 1, "repo": "cwehmeyer/pydpc", "link": "https://github.com/cwehmeyer/pydpc", "description": "Python package for Density Peak-based Clustering" }, 
 { "ndownloads": 0, "name": "digital-organism-simulation-environment", "optparse": 1, "argv": 2, "repo": "mauriceling/dose", "link": "https://github.com/mauriceling/dose", "description": "Digital Organism Simulation Environment (DOSE)" }, 
 { "argparse": 37, "ndownloads": 722, "name": "resolwe-bio", "optparse": 1, "argv": 10, "repo": "genialis/resolwe-bio", "link": "https://github.com/genialis/resolwe-bio/", "description": "Bioinformatics pipelines for the Resolwe platform." }, 
 { "ndownloads": 617, "name": "loqusdb", "argv": 1, "repo": "moonso/loqusdb", "link": "http://github.com/moonso/loqusdb", "click": 6, "description": "Store frequencies of vcf variants in a mongodb" }, 
 { "repo": "gersolar/netcdf", "ndownloads": 791, "link": "https://github.com/gersolar/netcdf", "name": "netcdf", "description": "A python library that allow to use one or multiple NetCDF files in a transparent way through polimorphic methods." }, 
 { "argparse": 27, "ndownloads": 230, "name": "svtools", "argv": 1, "repo": "hall-lab/svtools", "link": "https://github.com/hall-lab/svtools", "description": "Tools for processing and analyzing structural variants" }, 
 { "repo": "mjirik/pyseg_base", "ndownloads": 1869, "link": "https://github.com/mjirik/pyseg_base", "name": "pysegbase", "description": "Graph Cut based 3D segmentation with editor" }, 
 { "argparse": 9, "ndownloads": 1736, "name": "bio_utils", "repo": "Brazelton-Lab/bio_utils", "link": "https://github.com/Brazelton-Lab/bio_utils/", "description": "importable functions often used by bioinformatic scripts" }, 
 { "ndownloads": 1853, "name": "pyprophet", "argv": 3, "repo": "uweschmitt/pyprophet", "link": "http://github.com/uweschmitt/pyprophet", "description": "Python reimplementation of mProphet peak scoring" }, 
 { "ndownloads": 5824, "name": "genmod", "argv": 1, "repo": "moonso/genmod", "link": "http://github.com/moonso/genmod", "click": 20, "description": "Annotate genetic inheritance models in variant files" }, 
 { "repo": "PyPhyloGenomics", "ndownloads": 504, "link": "http://carlosp420.github.com/PyPhyloGenomics/", "name": "PyPhyloGenomics", "description": "Tools to work in phylogenomics, from NSG group http://nymphalidae.utu.fi" }, 
 { "argparse": 2, "ndownloads": 123, "name": "msstitch", "argv": 5, "repo": "glormph/msstitch", "link": "https://github.com/glormph/msstitch", "description": "MS proteomics post processing utilities" }, 
 { "repo": "pyopensci/pyensemblrest", "ndownloads": 31, "link": "http://github.com/pyopensci/pyensemblrest/tree/master", "name": "pyensemblrest", "description": "An easy way to access EnsEMBL data with Python." }, 
 { "repo": "biomadeira/pyPDBeREST", "ndownloads": 45, "link": "https://github.com/biomadeira/pyPDBeREST", "name": "pyPDBeREST", "description": "A python wrapper for the PDBe REST API" }, 
 { "repo": "sckott/pygbif", "ndownloads": 174, "link": "http://github.com/sckott/pygbif", "name": "pygbif", "description": "Python client for GBIF" }, 
 { "ndownloads": 429, "name": "BioSignalML", "optparse": 1, "argv": 2, "repo": "dbrnz/biosignalml-corelib", "link": "https://github.com/dbrnz/biosignalml-corelib", "description": "Python BioSignal Abstraction Library" }, 
 { "argparse": 2, "ndownloads": 255, "name": "pique", "argv": 9, "repo": "ryneches/pique", "link": "https://github.com/ryneches/pique", "click": 1, "description": "An efficient peak finder for high coverage ChIP-seq experiments." }, 
 { "argparse": 1, "ndownloads": 0, "name": "ggd", "argv": 1, "repo": "gogetdata/ggd-cli", "link": "https://github.com/gogetdata/ggd-cli", "description": "CLI for gogetdata (ggd)" }, 
 { "repo": "yoavram/curveball", "ndownloads": 0, "link": "https://github.com/yoavram/curveball", "name": "curveball", "description": "Predicting competition results from growth curves" }, 
 { "argparse": 2, "ndownloads": 255, "name": "pique", "argv": 9, "repo": "ryneches/pique", "link": "https://github.com/ryneches/pique", "click": 1, "description": "An efficient peak finder for high coverage ChIP-seq experiments." }, 
 { "ndownloads": 82, "name": "eke.ecas", "optparse": 1, "repo": "EDRN/eke.ecas", "link": "https://github.com/EDRN/eke.ecas", "description": "EDRN Catalog and Archive Service for the EDRN Knowledge Environment" }, 
 { "argparse": 2, "ndownloads": 1260, "name": "MACS2", "optparse": 3, "argv": 2, "repo": "taoliu/MACS", "link": "http://github.com/taoliu/MACS/", "description": "Model Based Analysis for ChIP-Seq data" }, 
 { "argparse": 1, "ndownloads": 220, "name": "BanzaiDB", "argv": 1, "repo": "mscook/BanzaiDB", "link": "http://github.com/mscook/BanzaiDB", "description": "Database for Banzai NGS pipeline tool" }, 
 { "argparse": 4, "ndownloads": 727, "name": "iva", "argv": 1, "repo": "sanger-pathogens/iva", "link": "https://github.com/sanger-pathogens/iva", "description": "Iterative Virus Assembler" }, 
 { "repo": "TheOneHyer/PyFHI", "ndownloads": 265, "link": "https://github.com/TheOneHyer/PyFHI", "name": "pyfhi", "description": "PyFHI is a single script designed to fix issues with Python file handling.See README for more details." }, 
 { "repo": "davisp/nebgbhist", "ndownloads": 169, "link": "http://github.com/davisp/nebgbhist", "name": "nebgbhist", "description": "Annotation histories from Genbank files." }, 
 { "repo": "kerguler/hoppMCMC", "ndownloads": 160, "link": "https://github.com/kerguler/hoppMCMC", "name": "hoppMCMC", "description": "An adaptive basin-hopping Markov-chain Monte Carlo algorithm for Bayesian optimisation" }, 
 { "ndownloads": 1853, "name": "pyprophet", "argv": 3, "repo": "uweschmitt/pyprophet", "link": "http://github.com/uweschmitt/pyprophet", "description": "Python reimplementation of mProphet peak scoring" }, 
 { "ndownloads": 93, "name": "timestreamCLI", "argv": 5, "repo": "borevitzlab/timestreamCLI", "link": "https://github.com/borevitzlab/timestreamCLI", "docopt": 10, "description": "timestreamCLI: Tools for working with timelapse imagery in the TimeStream  format" }, 
{"repo": "sckott/pygbif", "ndownloads": 174, "link": "http://github.com/sckott/pygbif", "name": "pygbif", "description": "Python client for GBIF"}, 
{"repo": "infant-cognition-tampere/gazeclassifier-py", "ndownloads": 0, "link": "https://github.com/infant-cognition-tampere/gazeclassifier-py", "name": "gazeclassifier", "description": "Decides whether given gaze points represent a saccade, fixation, or some unknown pattern"}, 
{"argparse": 1, "ndownloads": 366, "name": "phylogemetric", "argv": 1, "repo": "SimonGreenhill/phylogemetric", "link": "https://github.com/SimonGreenhill/phylogemetric", "description": "A python library for calculating the delta score (Holland et al. 2002) and Q-Residual (Gray et al. 2010)"}, 
{"ndownloads": 1853, "name": "pyprophet", "argv": 3, "repo": "uweschmitt/pyprophet", "link": "http://github.com/uweschmitt/pyprophet", "description": "Python reimplementation of mProphet peak scoring"}, 
{"argparse": 3, "ndownloads": 104, "name": "fasta", "argv": 20, "repo": "xapple/fasta", "link": "http://github.com/xapple/fasta/", "description": "The fasta python package enables you to deal with biological sequence files easily."}, 
{"argparse": 2, "ndownloads": 34, "name": "treehmm", "optparse": 1, "argv": 3, "repo": "uci-cbcl/tree-hmm", "link": "https://github.com/uci-cbcl/tree-hmm", "description": "Variational Inference for tree-structured Hidden-Markov Models"}, 
{"ndownloads": 707, "name": "python-nexus", "optparse": 12, "repo": "SimonGreenhill/python-nexus", "link": "https://github.com/SimonGreenhill/python-nexus", "description": "A nexus (phylogenetics) file reader (.nex, .trees)"}, 
{"repo": "genomes", "ndownloads": 114, "link": "http://xapple.github.com/genomes/", "name": "genomes", "description": "Access to genomic assemblies meta data"}, 
{"ndownloads": 289, "name": "interval_tree", "argv": 1, "repo": "moonso/interval_tree", "link": "http://github.com/moonso/interval_tree", "description": "Python implemetation of the interval tree"}, 
{"argparse": 37, "ndownloads": 1043, "name": "pyfastaq", "argv": 1, "repo": "sanger-pathogens/Fastaq", "link": "https://github.com/sanger-pathogens/Fastaq", "description": "Script to manipulate FASTA and FASTQ files, plus API for developers"}, 
{"argparse": 1, "ndownloads": 90, "name": "forward", "argv": 1, "repo": "legaultmarc/forward", "link": "https://github.com/legaultmarc/forward", "description": "Tool for gene-based phenomic experiments using cohorts."}, 
{"ndownloads": 1853, "name": "pyprophet", "argv": 3, "repo": "uweschmitt/pyprophet", "link": "http://github.com/uweschmitt/pyprophet", "description": "Python reimplementation of mProphet peak scoring"}, 
{"argparse": 2, "ndownloads": 214, "name": "ampcountpy", "argv": 1, "repo": "sherrillmix/ampCountPy", "link": "http://github.com/sherrillmix/ampCountPy", "description": "Some functions to count the expected amplifications for genomic regions given a set of primer binding locations for a multiple displacement amplification reaction."}, 
{"argparse": 5, "ndownloads": 354, "name": "biofrills", "argv": 9, "repo": "etal/biofrills", "link": "http://github.com/etal/biofrills", "description": "Bioinformatics utilities for molecular sequence analysis."}, 
{"argparse": 1, "ndownloads": 286, "name": "spykeutils", "repo": "rproepp/spykeutils", "link": "https://github.com/rproepp/spykeutils", "click": 1, "description": "Utilities for analyzing electrophysiological data"}, 
{"ndownloads": 429, "name": "BioSignalML", "optparse": 1, "argv": 2, "repo": "dbrnz/biosignalml-corelib", "link": "https://github.com/dbrnz/biosignalml-corelib", "description": "Python BioSignal Abstraction Library"}, 
{"ndownloads": 62, "name": "mpg", "argv": 3, "repo": "kdmurray91/mpg", "link": "https://github.com/kdmurray91/mpg", "docopt": 2, "description": "MPG: Markov Process Generator of DNA sequences"}, 
{"ndownloads": 1853, "name": "pyprophet", "argv": 3, "repo": "uweschmitt/pyprophet", "link": "http://github.com/uweschmitt/pyprophet", "description": "Python reimplementation of mProphet peak scoring"}, 
{"ndownloads": 125, "name": "GenomeBaser", "argv": 1, "repo": "mscook/GenomeBaser", "link": "http://github.com/mscook/GenomeBaser", "click": 1, "description": "GenomeBaser manages complete (bacterial) genomes from NCBI"}, 
{"ndownloads": 1853, "name": "pyprophet", "argv": 3, "repo": "uweschmitt/pyprophet", "link": "http://github.com/uweschmitt/pyprophet", "description": "Python reimplementation of mProphet peak scoring"}, 
{"argparse": 1, "ndownloads": 80, "name": "klab", "optparse": 3, "argv": 10, "repo": "Kortemme-Lab/klab", "link": "https://github.com/Kortemme-Lab/klab", "docopt": 2, "description": "A collection of utilities used by our lab for computational biophysics"}, 
{"ndownloads": 1853, "name": "pyprophet", "argv": 3, "repo": "uweschmitt/pyprophet", "link": "http://github.com/uweschmitt/pyprophet", "description": "Python reimplementation of mProphet peak scoring"}, 
{"repo": "sulab/myvariant.py", "ndownloads": 232, "link": "https://github.com/sulab/myvariant.py", "name": "myvariant", "description": "Python Client for MyVariant.Info services."}, 
{"repo": "seb-buch/FATSLiM", "ndownloads": 157, "link": "https://github.com/seb-buch/FATSLiM", "name": "fatslim", "description": "Python/MD Toolbox"}, 
{"repo": "idekerlab/py2cytoscape", "ndownloads": 58, "link": "https://github.com/idekerlab/py2cytoscape", "name": "elsa-client", "description": "Service registration client for Cytoscape CI ELSA"}, 
{"argparse": 2, "ndownloads": 274, "name": "indra", "optparse": 1, "argv": 5, "repo": "sorgerlab/indra", "link": "http://github.com/sorgerlab/indra", "description": "Integrated Network and Dynamical Reasoning Assembler"}, 
{"ndownloads": 863, "name": "Kreveik", "argv": 1, "repo": "mehmetalianil/Kreveik", "link": "http://github.com/mehmetalianil/Kreveik/", "description": "Kreveik is a Python module for Boolean networks. With Kreveik, one can create, investigate dynamics of, form families of random Boolean networks."}, 
{"ndownloads": 1853, "name": "pyprophet", "argv": 3, "repo": "uweschmitt/pyprophet", "link": "http://github.com/uweschmitt/pyprophet", "description": "Python reimplementation of mProphet peak scoring"}, 
{"ndownloads": 1853, "name": "pyprophet", "argv": 3, "repo": "uweschmitt/pyprophet", "link": "http://github.com/uweschmitt/pyprophet", "description": "Python reimplementation of mProphet peak scoring"}, 
{"ndownloads": 238, "name": "RnaChipIntegrator", "optparse": 1, "argv": 1, "repo": "fls-bioinformatics-core/RnaChipIntegrator", "link": "https://github.com/fls-bioinformatics-core/RnaChipIntegrator", "description": "Analyse genes against peak data, and vice versa"}, 
{"ndownloads": 1347, "name": "wcon", "argv": 1, "repo": "openworm/tracker-commons", "link": "https://github.com/openworm/tracker-commons", "description": "Worm tracker Commons Object Notation"}, 
{"ndownloads": 226, "name": "edrn.rdf", "optparse": 1, "repo": "EDRN/edrn.rdf", "link": "https://github.com/EDRN/edrn.rdf", "description": "EDRN RDF Server"}, 
{"ndownloads": 1853, "name": "pyprophet", "argv": 3, "repo": "uweschmitt/pyprophet", "link": "http://github.com/uweschmitt/pyprophet", "description": "Python reimplementation of mProphet peak scoring"}, 
{"ndownloads": 570, "name": "fsed", "repo": "wroberts/fsed", "link": "https://github.com/wroberts/fsed", "click": 3, "description": "Aho-Corasick string replacement utility"}, 
{"repo": "sseemayer/BioPython-A3MIO", "ndownloads": 49, "link": "https://github.com/sseemayer/BioPython-A3MIO", "name": "A3MIO", "description": "A3M/A2M I/O for BioPython"}, 
{"repo": "mcs07/PubChemPy", "ndownloads": 179, "link": "https://github.com/mcs07/PubChemPy", "name": "PubChemPy", "description": "A simple Python wrapper around the PubChem PUG REST API."}, 
{"argparse": 36, "ndownloads": 1069, "name": "lisa", "optparse": 1, "argv": 28, "repo": "mjirik/lisa", "link": "https://github.com/mjirik/lisa", "click": 3, "description": "3D data processing toolbox"}, 
{"repo": "sequana", "ndownloads": 277, "link": "http://github.com/sequana/", "name": "sequana", "description": "Put a short description here"}, 
{"repo": "vishnubob/ssw", "ndownloads": 0, "link": "https://github.com/vishnubob/ssw/archive/v0.3.1.tar.gz", "name": "ssw", "description": "Smith-Waterman Sequence Aligner"}, 
{"repo": "gersolar/netcdf", "ndownloads": 791, "link": "https://github.com/gersolar/netcdf", "name": "netcdf", "description": "A python library that allow to use one or multiple NetCDF files in a transparent way through polimorphic methods."}, 
{"argparse": 25, "ndownloads": 98, "name": "phylotoast", "argv": 2, "repo": "smdabdoub/phylotoast", "link": "https://github.com/smdabdoub/phylotoast", "description": "Useful additions to the QIIME analysis pipeline including tools for data visualization and cluster-computing."}, 
{"argparse": 1, "ndownloads": 502, "name": "RNFtools", "argv": 2, "repo": "karel-brinda/rnftools", "link": "http://github.com/karel-brinda/rnftools", "description": "A package for Read Naming Format (RNF)."}, 
{"repo": "gersolar/netcdf", "ndownloads": 791, "link": "https://github.com/gersolar/netcdf", "name": "netcdf", "description": "A python library that allow to use one or multiple NetCDF files in a transparent way through polimorphic methods."}, 
{"ndownloads": 206, "name": "filter_variants", "argv": 1, "repo": "moonso/filter_variants", "link": "https://github.com/moonso/filter_variants", "click": 2, "description": "Filter variants based on frequencies"}, 
{"argparse": 1, "ndownloads": 32, "name": "pygenomics", "repo": "tiagoantao/pygenomics", "link": "http://github.com/tiagoantao/pygenomics", "description": "A modern genomics library"}, 
{"repo": "CellProfiler/centrosome", "ndownloads": 319, "link": "https://github.com/CellProfiler/centrosome", "name": "centrosome", "description": "An open source image processing library"}, 
{"argparse": 15, "ndownloads": 53, "name": "loom-engine", "argv": 1, "repo": "StanfordBioinformatics/loom", "link": "https://github.com/StanfordBioinformatics/loom", "description": "loom workflow engine"}, 
{"argparse": 2, "ndownloads": 245, "name": "idxtools", "optparse": 1, "argv": 3, "repo": "emi80/idxtools", "link": "https://github.com/emi80/idxtools", "docopt": 6, "description": "Indexfile API and tools"}, 
{"repo": "sein-tao/pyBioUtil", "ndownloads": 115, "link": "https://github.com/sein-tao/pyBioUtil", "name": "BioUtil", "description": "Bioinfomatics File access tools"}, 
{"argparse": 8, "ndownloads": 538, "name": "snp-pipeline", "argv": 2, "repo": "CFSAN-Biostatistics/snp-pipeline", "link": "https://github.com/CFSAN-Biostatistics/snp-pipeline", "description": "Script and functions for SNP matrix construction"}, 
{"argparse": 2, "ndownloads": 67, "name": "seam", "repo": "VUIIS/seam", "link": "http://github.com/VUIIS/seam", "description": "A simple layer between neuroimaging tools and your data"}, 
{"repo": "sebriois/biomart", "ndownloads": 498, "link": "https://github.com/sebriois/biomart", "name": "biomart", "description": "Python API that consumes the biomart webservice"}, 
{"argparse": 2, "ndownloads": 255, "name": "pique", "argv": 9, "repo": "ryneches/pique", "link": "https://github.com/ryneches/pique", "click": 1, "description": "An efficient peak finder for high coverage ChIP-seq experiments."}, 
{"repo": "mcs07/ChemSpiPy", "ndownloads": 220, "link": "https://github.com/mcs07/ChemSpiPy", "name": "ChemSpiPy", "description": "A simple Python wrapper around the ChemSpider Web Services."}, 
{"ndownloads": 1853, "name": "pyprophet", "argv": 3, "repo": "uweschmitt/pyprophet", "link": "http://github.com/uweschmitt/pyprophet", "description": "Python reimplementation of mProphet peak scoring"}, 
{"repo": "brentp/skidmarks", "ndownloads": 192, "link": "http://github.com/brentp/skidmarks/", "name": "skidmarks", "description": "find runs (non-randomness) in sequences"}, 
{"argparse": 1, "ndownloads": 431, "name": "lesioneditor", "optparse": 1, "argv": 16, "repo": "mazoku/lesion_editor", "link": "https://github.com/mazoku/lesion_editor", "click": 6, "description": "Editor for localization of liver lesions"}, 
{"argparse": 3, "ndownloads": 444, "name": "ngCGH", "repo": "seandavi/ngCGH", "link": "http://github.com/seandavi/ngCGH", "description": "Pseudo-cgh of next-generation sequencing data"}, 
{"ndownloads": 635, "name": "coral", "argv": 1, "repo": "klavinslab/coral", "link": "https://github.com/klavinslab/coral", "description": "Coral: code-ify your synthetic DNA design workflow."}, 
{"argparse": 1, "ndownloads": 582, "name": "enrichme", "argv": 1, "repo": "feilchenfeldt/enrichme", "link": "https://github.com/feilchenfeldt/enrichme", "description": "Test enrichment of genome-wide statistics in gene (or other) categories while correcting for gene-length and clustering."}, 
{"repo": "datamade/hcluster", "ndownloads": 1556, "link": "https://github.com/datamade/hcluster", "name": "dedupe-hcluster", "description": "Hierarchical Clustering Algorithms (Information Theory)"}, 
{"argparse": 3, "ndownloads": 575, "name": "goatools", "optparse": 2, "argv": 2, "repo": "tanghaibao/goatools", "link": "http://github.com/tanghaibao/goatools", "description": "Python scripts to find enrichment of GO terms"}, 
{"repo": "sckott/pygbif", "ndownloads": 174, "link": "http://github.com/sckott/pygbif", "name": "pygbif", "description": "Python client for GBIF"}, 
{"argparse": 3, "ndownloads": 152, "name": "CLASHChimeras", "repo": "kashyapchhatbar/CLASHChimeras", "link": "https://github.com/kashyapchhatbar/CLASHChimeras", "description": "Python package to find chimeras in CRAC/CLASH and HITS-CLIP datasets"}, 
{"repo": "mjirik/py3DSeedEditor", "ndownloads": 121, "link": "https://github.com/mjirik/py3DSeedEditor", "name": "py3DSeedEditor", "description": "3D viewer and editor of color seeds"}, 
{"repo": "sanger-pathogens/pymummer", "ndownloads": 604, "link": "https://github.com/sanger-pathogens/pymummer", "name": "pymummer", "description": "Wrapper for MUMmer"}, 
{"repo": "davisp/nebgb", "ndownloads": 245, "link": "http://github.com/davisp/nebgb", "name": "nebgb", "description": "Genbank file parser."}, 
{"repo": "sbg/sevenbridges-python", "ndownloads": 0, "link": "https://github.com/sbg/sevenbridges-python", "name": "sevenbridges-python", "description": "SBG API python client bindings"}, 
{"argparse": 2, "ndownloads": 128, "name": "proScatter", "repo": "justinjee/proScatter", "link": "https://github.com/justinjee/proScatter", "description": "for visualizing pLink data from one or more experiments"}, 
{"argparse": 18, "ndownloads": 287, "name": "plastid", "argv": 18, "repo": "joshuagryphon/plastid", "link": "https://github.com/joshuagryphon/plastid", "description": "Convert genomic datatypes into Pythonic objects useful to the SciPy stack"}, 
{"ndownloads": 180, "name": "nglview", "argv": 1, "repo": "arose/nglview", "link": "https://github.com/arose/nglview", "description": "IPython widget to interactively view molecular structures and trajectories."}, 
{"argparse": 1, "ndownloads": 179, "name": "calTADs", "argv": 1, "repo": "XiaoTaoWang/calTADs", "link": "https://github.com/XiaoTaoWang/calTADs/", "description": "A hierarchical domain caller for Hi-C data based on a modified version of Directionality Index"}, 
{"repo": "Dapid/tmscoring", "ndownloads": 33, "link": "https://github.com/Dapid/tmscoring", "name": "tmscoring", "description": "Python implementation of the TMscore program"}, 
{"repo": "ecolell/MIToS", "ndownloads": 191, "link": "https://github.com/ecolell/MIToS", "name": "mitos", "description": "A python library that join a set of tools to make a Mutual Information analysis for protein sequences."}, 
{"ndownloads": 350, "name": "fixeyefi", "repo": "borevitzlab/fixeyefi", "link": "https://github.com/borevitzlab/fixeyefi", "docopt": 2, "description": "fixeyefi: fix eyefi cache dumps"}, 
{"ndownloads": 83, "name": "eke.knowledge", "optparse": 1, "repo": "EDRN/eke.knowledge", "link": "https://github.com/EDRN/eke.knowledge", "description": "EDRN Knowledge Environment"}, 
{"repo": "konstantint/pyopossum3", "ndownloads": 69, "link": "https://github.com/konstantint/pyopossum3", "name": "pyopossum3", "description": "SQLAlchemy-based interface to the oPOSSUM3 transcription factor binding database."}, 
{"argparse": 1, "ndownloads": 218, "name": "plip", "argv": 1, "repo": "ssalentin/plip", "link": "https://github.com/ssalentin/plip", "description": "PLIP - Fully automated protein-ligand interaction profiler"}, 
{"ndownloads": 567, "name": "jcvi", "optparse": 3, "argv": 7, "repo": "tanghaibao/jcvi", "link": "http://github.com/tanghaibao/jcvi", "click": 1, "description": "Python utility libraries on genome assembly, annotation and comparative genomics"}, 
{"argparse": 3, "ndownloads": 816, "name": "allensdk", "argv": 3, "repo": "AllenInstitute/AllenSDK", "link": "https://github.com/AllenInstitute/AllenSDK/tree/v0.10.1", "description": "core libraries for the allensdk."}, 
{"argparse": 1, "ndownloads": 1398, "name": "pyensembl", "repo": "hammerlab/pyensembl", "link": "https://github.com/hammerlab/pyensembl", "description": "Python interface to ensembl reference genome metadata"}, 
{"argparse": 1, "ndownloads": 0, "name": "nsdf", "argv": 5, "repo": "nsdf/nsdf", "link": "https://github.com/nsdf/nsdf", "description": "NSDF (Neuroscience Simulation Data Format)"}, 
{"ndownloads": 1853, "name": "pyprophet", "argv": 3, "repo": "uweschmitt/pyprophet", "link": "http://github.com/uweschmitt/pyprophet", "description": "Python reimplementation of mProphet peak scoring"}, 
{"repo": "gersolar/goescalibration", "ndownloads": 424, "link": "https://github.com/gersolar/goescalibration", "name": "goescalibration", "description": "A python library that allow to calibrate netcdf images of the NOAA CLASS (Comprehensive Large Array-Data Stewardship System)."}, 
{"argparse": 5, "ndownloads": 232, "name": "Gemtools", "optparse": 2, "argv": 3, "repo": "gemtools/gemtools", "link": "https://github.com/gemtools/gemtools", "description": "Python support library for the GEM mapper and the gemtools library"}, 
{"repo": "ecolell/MIToS", "ndownloads": 191, "link": "https://github.com/ecolell/MIToS", "name": "mitos", "description": "A python library that join a set of tools to make a Mutual Information analysis for protein sequences."}, 
{"repo": "bassio/omicexperiment", "ndownloads": 56, "link": "https://github.com/bassio/omicexperiment", "name": "omicexperiment", "description": "For analysis of omic experiments."}, 
{"argparse": 12, "ndownloads": 513, "name": "genometools", "repo": "flo-compbio/genometools", "link": "https://github.com/flo-compbio/genometools", "description": "GenomeTools: A Python Framework For Analyzing Genomic Data."}, 
{"repo": "jbarnoud/panedr", "ndownloads": 269, "link": "https://github.com/jbarnoud/panedr", "name": "panedr", "description": "Read and manipulate Gromacs energy files"}, 
{"ndownloads": 506, "name": "dicom2fem", "optparse": 3, "argv": 5, "repo": "vlukes/dicom2fem", "link": "https://github.com/vlukes/dicom2fem", "description": "Generation of finite element meshes from DICOM images"}, 
{"argparse": 10, "ndownloads": 828, "name": "RILseq", "argv": 10, "repo": "asafpr/RILseq", "link": "http://github.com/asafpr/RILseq", "description": "Processing RILSeq experiments results"}, 
{"ndownloads": 373, "name": "stockholm_reformat", "argv": 3, "repo": "Dapid/stockholm_reformat", "link": "https://github.com/Dapid/stockholm_reformat", "description": "Fast Stockholm to other formats Multiple Sequence Alignment reformater."}, 
{"repo": "mcs07/CIRpy", "ndownloads": 91, "link": "https://github.com/mcs07/CIRpy", "name": "CIRpy", "description": "Python wrapper for the NCI Chemical Identifier Resolver (CIR)."}, 
{"argparse": 1, "ndownloads": 35, "name": "path_pipe_conf_tools", "repo": "sanger-pathogens/PathPipeConfTools", "link": "https://github.com/sanger-pathogens/PathPipeConfTools", "description": "Tools for working with the pathogen pipeline at The Wellcome Trust Sanger Institute"}, 
{"argparse": 2, "ndownloads": 60, "name": "scrimer", "argv": 8, "repo": "libor-m/scrimer", "link": "https://github.com/libor-m/scrimer", "description": "Primer designing pipeline"}, 
{"ndownloads": 108, "name": "seqsearch", "argv": 2, "repo": "xapple/seqsearch", "link": "https://github.com/xapple/seqsearch", "description": "Sequence similarity searches made easy."}, 
{"repo": "mfitzp/mplstyler", "ndownloads": 35, "link": "https://github.com/mfitzp/mplstyler", "name": "mplstyler", "description": "An API for assigning consistent marker styles to plots. Assign colours, markers, line-styles to labels and re-use on subsequent plots."}, 
{"ndownloads": 153, "name": "eke.publications", "optparse": 1, "repo": "EDRN/eke.publications", "link": "https://github.com/EDRN/eke.publications", "description": "Publications Management for the EDRN Knowledge Environment"}, 
{"ndownloads": 1853, "name": "pyprophet", "argv": 3, "repo": "uweschmitt/pyprophet", "link": "http://github.com/uweschmitt/pyprophet", "description": "Python reimplementation of mProphet peak scoring"}, 
{"argparse": 1, "ndownloads": 89, "name": "pyaffy", "repo": "flo-compbio/pyaffy", "link": "https://github.com/flo-compbio/pyaffy", "description": "pyAffy: Processing raw data from Affymetrix expression microarrays in Python."}, 
{"argparse": 2, "ndownloads": 255, "name": "pique", "argv": 9, "repo": "ryneches/pique", "link": "https://github.com/ryneches/pique", "click": 1, "description": "An efficient peak finder for high coverage ChIP-seq experiments."}, 
{"argparse": 1, "ndownloads": 502, "name": "RNFtools", "argv": 2, "repo": "karel-brinda/rnftools", "link": "http://github.com/karel-brinda/rnftools", "description": "A package for Read Naming Format (RNF)."}, 
{"repo": "neb", "ndownloads": 37, "link": "http://github.com/neb", "name": "NEB", "description": "Namespace package for NEB projects."}, 
{"repo": "ecolell/amphipathic", "ndownloads": 51, "link": "https://github.com/ecolell/amphipathic", "name": "amphipathic", "description": "This is a library to evaluate an aminoacid sequence and determine an amphipathic index for each alpha helix or beta sheet."}, 
{"argparse": 2, "ndownloads": 238, "name": "itolapi", "argv": 3, "repo": "albertyw/itolapi", "link": "http://github.com/albertyw/itolapi", "description": "API for interacting with itol.embl.de"}, 
{"ndownloads": 1853, "name": "pyprophet", "argv": 3, "repo": "uweschmitt/pyprophet", "link": "http://github.com/uweschmitt/pyprophet", "description": "Python reimplementation of mProphet peak scoring"}, 
{"repo": "sckott/habanero", "ndownloads": 589, "link": "https://github.com/sckott/habanero", "name": "habanero", "description": "Low Level Client for Crossref Search API"}, 
{"argparse": 5, "ndownloads": 37, "name": "tapir", "argv": 1, "repo": "faircloth-lab/tapir", "link": "http://github.com/faircloth-lab/tapir/", "description": "Tally Approximations of Phylogenetic Informativeness Rapidly (TAPIR)"}, 
{"argparse": 4, "ndownloads": 121, "name": "smashbenchmarking", "argv": 6, "repo": "amplab/smash", "link": "http://github.com/amplab/smash/", "description": "Check the accuracy of one VCF callset against another"}, 
{"repo": "dlmeduLi/uniqe-sam", "ndownloads": 325, "link": "https://github.com/dlmeduLi/uniqe-sam", "name": "unique-sam", "description": "Analyse sam file and keep the unique aligment record."}, 
{"ndownloads": 225, "name": "tigreBrowser", "optparse": 6, "repo": "PROBIC/tigreBrowser", "link": "https://github.com/PROBIC/tigreBrowser/", "description": "Gene expression model browser for results from tigre R package (http://www.bioconductor.org/packages/release/bioc/html/tigre.html)"}]